%!PS-Adobe-3.0 EPSF-3.0
%%Creator: MATLAB, The MathWorks, Inc. Version 7.14.0.739 (R2012a). Operating System: Linux 2.6.32-431.el6.x86_64 #1 SMP Fri Nov 22 03:15:09 UTC 2013 x86_64.
%%Title: ./ps5q2figF.eps
%%CreationDate: 02/18/2014  21:28:37
%%DocumentNeededFonts: Helvetica
%%DocumentProcessColors: Cyan Magenta Yellow Black
%%LanguageLevel: 2
%%Pages: 1
%%BoundingBox:    70   294   546   523
%%EndComments

%%BeginProlog
% MathWorks dictionary
/MathWorks 160 dict begin
% definition operators
/bdef {bind def} bind def
/ldef {load def} bind def
/xdef {exch def} bdef
/xstore {exch store} bdef
% operator abbreviations
/c  /clip ldef
/cc /concat ldef
/cp /closepath ldef
/gr /grestore ldef
/gs /gsave ldef
/mt /moveto ldef
/np /newpath ldef
/cm /currentmatrix ldef
/sm /setmatrix ldef
/rm /rmoveto ldef
/rl /rlineto ldef
/s {show newpath} bdef
/sc {setcmykcolor} bdef
/sr /setrgbcolor ldef
/sg /setgray ldef
/w /setlinewidth ldef
/j /setlinejoin ldef
/cap /setlinecap ldef
/rc {rectclip} bdef
/rf {rectfill} bdef
% page state control
/pgsv () def
/bpage {/pgsv save def} bdef
/epage {pgsv restore} bdef
/bplot /gsave ldef
/eplot {stroke grestore} bdef
% orientation switch
/portraitMode 0 def /landscapeMode 1 def /rotateMode 2 def
% coordinate system mappings
/dpi2point 0 def
% font control
/FontSize 0 def
/FMS {/FontSize xstore findfont [FontSize 0 0 FontSize neg 0 0]
  makefont setfont} bdef
/reencode {exch dup where {pop load} {pop StandardEncoding} ifelse
  exch dup 3 1 roll findfont dup length dict begin
  { 1 index /FID ne {def}{pop pop} ifelse } forall
  /Encoding exch def currentdict end definefont pop} bdef
/isroman {findfont /CharStrings get /Agrave known} bdef
/FMSR {3 1 roll 1 index dup isroman {reencode} {pop pop} ifelse
  exch FMS} bdef
/csm {1 dpi2point div -1 dpi2point div scale neg translate
 dup landscapeMode eq {pop -90 rotate}
  {rotateMode eq {90 rotate} if} ifelse} bdef
% line types: solid, dotted, dashed, dotdash
/SO { [] 0 setdash } bdef
/DO { [.5 dpi2point mul 4 dpi2point mul] 0 setdash } bdef
/DA { [6 dpi2point mul] 0 setdash } bdef
/DD { [.5 dpi2point mul 4 dpi2point mul 6 dpi2point mul 4
  dpi2point mul] 0 setdash } bdef
% macros for lines and objects
/L {lineto stroke} bdef
/MP {3 1 roll moveto 1 sub {rlineto} repeat} bdef
/AP {{rlineto} repeat} bdef
/PDlw -1 def
/W {/PDlw currentlinewidth def setlinewidth} def
/PP {closepath eofill} bdef
/DP {closepath stroke} bdef
/MR {4 -2 roll moveto dup  0 exch rlineto exch 0 rlineto
  neg 0 exch rlineto closepath} bdef
/FR {MR stroke} bdef
/PR {MR fill} bdef
/L1i {{currentfile picstr readhexstring pop} image} bdef
/tMatrix matrix def
/MakeOval {newpath tMatrix currentmatrix pop translate scale
0 0 1 0 360 arc tMatrix setmatrix} bdef
/FO {MakeOval stroke} bdef
/PO {MakeOval fill} bdef
/PD {currentlinewidth 2 div 0 360 arc fill
   PDlw -1 eq not {PDlw w /PDlw -1 def} if} def
/FA {newpath tMatrix currentmatrix pop translate scale
  0 0 1 5 -2 roll arc tMatrix setmatrix stroke} bdef
/PA {newpath tMatrix currentmatrix pop	translate 0 0 moveto scale
  0 0 1 5 -2 roll arc closepath tMatrix setmatrix fill} bdef
/FAn {newpath tMatrix currentmatrix pop translate scale
  0 0 1 5 -2 roll arcn tMatrix setmatrix stroke} bdef
/PAn {newpath tMatrix currentmatrix pop translate 0 0 moveto scale
  0 0 1 5 -2 roll arcn closepath tMatrix setmatrix fill} bdef
/vradius 0 def /hradius 0 def /lry 0 def
/lrx 0 def /uly 0 def /ulx 0 def /rad 0 def
/MRR {/vradius xdef /hradius xdef /lry xdef /lrx xdef /uly xdef
  /ulx xdef newpath tMatrix currentmatrix pop ulx hradius add uly
  vradius add translate hradius vradius scale 0 0 1 180 270 arc 
  tMatrix setmatrix lrx hradius sub uly vradius add translate
  hradius vradius scale 0 0 1 270 360 arc tMatrix setmatrix
  lrx hradius sub lry vradius sub translate hradius vradius scale
  0 0 1 0 90 arc tMatrix setmatrix ulx hradius add lry vradius sub
  translate hradius vradius scale 0 0 1 90 180 arc tMatrix setmatrix
  closepath} bdef
/FRR {MRR stroke } bdef
/PRR {MRR fill } bdef
/MlrRR {/lry xdef /lrx xdef /uly xdef /ulx xdef /rad lry uly sub 2 div def
  newpath tMatrix currentmatrix pop ulx rad add uly rad add translate
  rad rad scale 0 0 1 90 270 arc tMatrix setmatrix lrx rad sub lry rad
  sub translate rad rad scale 0 0 1 270 90 arc tMatrix setmatrix
  closepath} bdef
/FlrRR {MlrRR stroke } bdef
/PlrRR {MlrRR fill } bdef
/MtbRR {/lry xdef /lrx xdef /uly xdef /ulx xdef /rad lrx ulx sub 2 div def
  newpath tMatrix currentmatrix pop ulx rad add uly rad add translate
  rad rad scale 0 0 1 180 360 arc tMatrix setmatrix lrx rad sub lry rad
  sub translate rad rad scale 0 0 1 0 180 arc tMatrix setmatrix
  closepath} bdef
/FtbRR {MtbRR stroke } bdef
/PtbRR {MtbRR fill } bdef
/stri 6 array def /dtri 6 array def
/smat 6 array def /dmat 6 array def
/tmat1 6 array def /tmat2 6 array def /dif 3 array def
/asub {/ind2 exch def /ind1 exch def dup dup
  ind1 get exch ind2 get sub exch } bdef
/tri_to_matrix {
  2 0 asub 3 1 asub 4 0 asub 5 1 asub
  dup 0 get exch 1 get 7 -1 roll astore } bdef
/compute_transform {
  dmat dtri tri_to_matrix tmat1 invertmatrix 
  smat stri tri_to_matrix tmat2 concatmatrix } bdef
/ds {stri astore pop} bdef
/dt {dtri astore pop} bdef
/db {2 copy /cols xdef /rows xdef mul dup 3 mul string
  currentfile 
  3 index 0 eq {/ASCIIHexDecode filter}
  {/ASCII85Decode filter 3 index 2 eq {/RunLengthDecode filter} if }
  ifelse exch readstring pop
  dup 0 3 index getinterval /rbmap xdef
  dup 2 index dup getinterval /gbmap xdef
  1 index dup 2 mul exch getinterval /bbmap xdef pop pop}bdef
/it {gs np dtri aload pop moveto lineto lineto cp c
  cols rows 8 compute_transform 
  rbmap gbmap bbmap true 3 colorimage gr}bdef
/il {newpath moveto lineto stroke}bdef
currentdict end def
%%EndProlog

%%BeginSetup
MathWorks begin

0 cap

end
%%EndSetup

%%Page: 1 1
%%BeginPageSetup
%%PageBoundingBox:    70   294   546   523
MathWorks begin
bpage
%%EndPageSetup

%%BeginObject: obj1
bplot

/dpi2point 12 def
portraitMode 0216 7344 csm

  631  1066  5706  2739 rc
76 dict begin %Colortable dictionary
/c0 { 0.000000 0.000000 0.000000 sr} bdef
/c1 { 1.000000 1.000000 1.000000 sr} bdef
/c2 { 0.900000 0.000000 0.000000 sr} bdef
/c3 { 0.000000 0.820000 0.000000 sr} bdef
/c4 { 0.000000 0.000000 0.800000 sr} bdef
/c5 { 0.910000 0.820000 0.320000 sr} bdef
/c6 { 1.000000 0.260000 0.820000 sr} bdef
/c7 { 0.000000 0.820000 0.820000 sr} bdef
c0
1 j
1 sg
   0    0 6913 5186 rf
6 w
0 2313 2314 0 0 -2313 898 3658 4 MP
PP
-2314 0 0 2313 2314 0 0 -2313 898 3658 5 MP stroke
4 w
DO
SO
6 w
0 sg
 898 3658 mt 3212 3658 L
 898 1345 mt 3212 1345 L
 898 3658 mt  898 1345 L
3212 3658 mt 3212 1345 L
 898 3658 mt 3212 3658 L
 898 3658 mt  898 1345 L
 898 3658 mt  898 3635 L
 898 1345 mt  898 1368 L
%%IncludeResource: font Helvetica
/Helvetica /ISOLatin1Encoding 120 FMSR

 865 3804 mt 
(1) s
1477 3658 mt 1477 3635 L
1477 1345 mt 1477 1368 L
1444 3804 mt 
(2) s
2055 3658 mt 2055 3635 L
2055 1345 mt 2055 1368 L
2022 3804 mt 
(3) s
2633 3658 mt 2633 3635 L
2633 1345 mt 2633 1368 L
2600 3804 mt 
(4) s
3212 3658 mt 3212 3635 L
3212 1345 mt 3212 1368 L
3179 3804 mt 
(5) s
 898 3658 mt  922 3658 L
3212 3658 mt 3188 3658 L
 798 3702 mt 
(0) s
 898 3080 mt  922 3080 L
3212 3080 mt 3188 3080 L
 631 3124 mt 
(0.05) s
 898 2502 mt  922 2502 L
3212 2502 mt 3188 2502 L
 698 2546 mt 
(0.1) s
 898 1923 mt  922 1923 L
3212 1923 mt 3188 1923 L
 631 1967 mt 
(0.15) s
 898 1345 mt  922 1345 L
3212 1345 mt 3188 1345 L
 698 1389 mt 
(0.2) s
 898 3658 mt 3212 3658 L
 898 1345 mt 3212 1345 L
 898 3658 mt  898 1345 L
3212 3658 mt 3212 1345 L
gs 898 1345 2315 2314 rc
/c8 { 0.000000 0.000000 1.000000 sr} bdef
c8
1 0 1 0 1 0 1 0 12 0 1 0 1 0 1 0 
1 0 1 0 12 0 1 0 1 0 1 0 13 0 1 0 
1 0 1 0 1 0 12 0 1 0 1 0 1 0 1 0 
12 0 1 0 1 0 1 0 13 0 1 0 1 0 1 0 
1 0 12 0 1 0 1 0 1 0 1 0 12 0 1 0 
1 0 1 0 1 0 12 0 1 0 1 0 1 0 12 0 
1 0 1 0 1 0 1 0 12 0 1 0 1 0 1 0 
1 0 12 0 1 0 1 0 1 0 1 0 12 0 1 0 
1 0 1 0 13 0 1 0 1 0 1 0 12 0 1 0 
1 0 1 0 1 0 12 0 1 0 1 0 1 0 12 0 
1 0 1 0 1 0 1 0 12 0 1 0 1 0 1 0 
1 0 12 0 1 0 1 0 1 0 1 0 12 0 1 0 
1 0 1 0 13 0 1 0 1 0 1 0 12 0 1 0 
1 0 1 0 12 0 1 0 1 0 1 0 1 0 12 0 
1 0 1 0 1 0 12 0 1 0 1 0 1 0 1 0 
12 0 1 0 1 0 1 0 12 0 1 0 1 0 1 0 
12 0 1 0 1 0 1 0 1 0 12 0 1 0 1 0 
1 0 12 0 1 0 1 0 1 0 12 0 1 0 1 0 
1 0 12 0 1 0 1 0 1 0 1 0 12 0 1 0 
1 0 1 0 12 0 1 0 1 0 1 0 12 0 1 0 
1 0 1 0 12 0 1 0 1 0 1 0 12 0 1 0 
1 0 13 0 1 0 1 0 1 0 12 0 1 0 1 0 
1 0 12 0 1 0 1 0 1 0 12 0 1 0 1 0 
12 0 1 0 1 0 1 0 12 0 1 0 1 0 1 0 
12 0 1 0 1 0 12 0 1 0 1 0 1 0 12 0 
1 0 1 0 1 0 12 0 1 0 1 0 12 0 1 0 
1 0 1 0 12 0 1 0 1 0 1 0 12 0 1 0 
1 0 12 0 1 0 1 1 0 -1 12 0 1 0 1 0 
1 0 12 0 1 0 1 1 0 -1 12 1 1 -1 1 1 
12 -1 1 0 1 0 12 0 1 0 -1 0 2 2 0 -2 
13 4 0 -4 1 0 1 1 12 0 1 -1 1 1 12 0 
1 -1 0 2 1 2 0 -4 12 9 1 -8 1 -1 1 1 
12 2 1 0 0 -3 1 1 12 1 1 -2 1 5 12 4 
0 -8 1 0 1 22 12 -22 1 1 13 5 0 -1 1 -5 
12 4 1 -2 1 -1 12 -1 0 13 1 8 12 -20 1 0 
0 55 1 -54 12 0 1 1 0 1 12 -1 1 9 1 3 
12 -14 0 1 1 8 0 -4 1 -2 12 -3 1 32 0 -31 
13 48 0 -45 1 0 2006 3652 300 MP stroke
12 137 0 -137 1 1 12 3 1 2 0 -3 1 6 12 2 
1 22 0 -35 12 3 1 17 1 -13 12 2 0 -9 1 21 
12 34 1 -55 0 124 12 -114 1 -2 12 344 1 -345 12 0 
1 3 12 2 1 6 12 13 1 3 12 56 0 -83 12 4 
1 9 1 -24 1 0 1 0 1 0 1 0 1 0 1 0 
1 0 4 34 1 -8 0 -16 7 -10 1 0 1 0 1 0 
1 0 1 0 1 0 0 62 1 -62 1 0 1 0 1 0 
1 0 1 0 1 0 1 0 4 111 1 -102 7 -9 1 0 
1 0 1 0 1 0 1 317 0 -317 1 0 0 5 0 -5 
1 0 1 0 1 0 1 0 1 0 1 0 1 0 5 17 
0 3 7 -20 1 0 1 0 1 0 1 0 1 0 0 889 
1 -889 0 19 1 -19 1 0 1 0 1 0 1 0 1 0 
6 23 1 -16 0 8 5 -15 1 0 1 0 1 0 1 0 
1 0 1 0 1 0 1 0 0 14 0 -12 1 -2 1 0 
1 0 1 0 8 51 1 -48 3 -3 1 0 1 0 1 0 
1 0 1 0 1 0 1 0 1 0 1 0 0 85 1 -85 
1 0 2 0 8 221 3 -221 1 0 1 0 1 0 1 0 
1 0 1 0 1 0 1 0 1 0 0 7 1 -7 1 0 
11 13 1 -13 1 0 1 0 1 0 1 0 1 0 1 0 
1 0 1 0 1 0 1 0 1 0 0 18 0 -18 1 0 
11 34 1 -34 1 0 1 0 1 0 1 0 1 0 1 0 
1 0 1 0 1 0 1 0 1 0 0 79 12 -64 0 -15 
1 0 1 0 1 0 1 0 1 0 1 0 1 0 1 0 
1 0 1 0 1 0 1 35 11 -35 1 0 1 16 0 -16 
1 0 1 0 1 0 1 0 1 0 1 0 1 0 1 0 
4 12 8 -12 1 0 1 0 1 0 1 104 0 -104 1 0 
1 0 1 0 1 0 1 0 1 0 6 196 6 -196 1 0 
1 0 1 0 1 0 1 0 1 0 0 13 1 -13 1 0 
1 0 9 546 3 -546 1 0 1 0 1 0 1 0 1 0 
1 0 1 0 1 0 1 0 1 0 0 25 0 -25 12 4 
0 -4 1 0 1 0 1 0 1 0 1 0 1 0 1 0 
1 0 1 0 3 17 9 -17 1 0 1 0 1 0 0 32 
1 -32 1 0 1 0 1 0 1 0 7 2210 5 -2210 1 0 
1 0 1 0 1 0 1 0 1 0 1 0 1 0 1 0 
12 0 1 0 1 0 1 0 1 0 1 0 1 0 1 0 
1 0 12 0 1 0 1 0 1 0 1 0 1 0 -1 0 
2 0 1 0 1 0 12 0 1 0 1 0 1 1 1 -1 
0 2 1 -2 1 0 1405 3658 300 MP stroke
12 1 1 0 1 -1 1 1 1 -1 0 1 1 2 0 -3 
1 6 1 -6 12 0 1 1 1 1 1 -2 1 1 1 -1 
1 4 0 2 12 -5 1 0 1 14 0 -14 1 0 1 0 
0 3 1 0 1 -3 1 2 0 -1 12 -1 1 0 1 8 
0 6 1 -13 1 36 1 -36 1 1 0 1 1 -2 12 7 
1 2 0 -10 1 1 0 5 1 -3 0 -1 1 -2 1 22 
0 -21 12 32 1 -30 1 0 0 91 1 -91 1 3 0 1 
1 -2 1 4 12 1 0 15 1 -23 1 2 0 11 1 -9 
0 1 1 -5 0 14 13 22 0 -36 1 82 0 -76 1 -1 
0 230 1 -230 1 -1 1 2 12 1 1 4 0 10 1 1 
0 37 1 -55 0 3 1 6 12 6 1 -4 0 -11 1 -1 
0 35 1 33 1 -68 0 206 1 -209 12 8 1 2 0 580 
1 -580 0 3 1 -11 12 5 1 -1 0 -7 1 32 0 -32 
1 55 1 90 12 -142 0 4 1 3 0 11 1 29 1 -42 
12 13 0 -12 1 -3 0 61 1 61 1 -121 0 355 12 -347 
1 -14 1 8 0 10 1 1452 1152 2185 125 MP stroke
gr

c8
0 sg
1934 1250 mt 
(PDF) s
1 sg
0 2313 2313 0 0 -2313 3942 3658 4 MP
PP
-2313 0 0 2313 2313 0 0 -2313 3942 3658 5 MP stroke
4 w
DO
SO
6 w
0 sg
3942 3658 mt 6255 3658 L
3942 1345 mt 6255 1345 L
3942 3658 mt 3942 1345 L
6255 3658 mt 6255 1345 L
3942 3658 mt 6255 3658 L
3942 3658 mt 3942 1345 L
3942 3658 mt 3942 3635 L
3942 1345 mt 3942 1368 L
3909 3804 mt 
(0) s
4404 3658 mt 4404 3635 L
4404 1345 mt 4404 1368 L
4371 3804 mt 
(1) s
4867 3658 mt 4867 3635 L
4867 1345 mt 4867 1368 L
4834 3804 mt 
(2) s
5329 3658 mt 5329 3635 L
5329 1345 mt 5329 1368 L
5296 3804 mt 
(3) s
5792 3658 mt 5792 3635 L
5792 1345 mt 5792 1368 L
5759 3804 mt 
(4) s
6255 3658 mt 6255 3635 L
6255 1345 mt 6255 1368 L
6222 3804 mt 
(5) s
3942 3658 mt 3965 3658 L
6255 3658 mt 6231 3658 L
3841 3702 mt 
(0) s
3942 3195 mt 3965 3195 L
6255 3195 mt 6231 3195 L
3741 3239 mt 
(0.2) s
3942 2733 mt 3965 2733 L
6255 2733 mt 6231 2733 L
3741 2777 mt 
(0.4) s
3942 2270 mt 3965 2270 L
6255 2270 mt 6231 2270 L
3741 2314 mt 
(0.6) s
3942 1808 mt 3965 1808 L
6255 1808 mt 6231 1808 L
3741 1852 mt 
(0.8) s
3942 1345 mt 3965 1345 L
6255 1345 mt 6231 1345 L
3841 1389 mt 
(1) s
3942 3658 mt 6255 3658 L
3942 1345 mt 6255 1345 L
3942 3658 mt 3942 1345 L
6255 3658 mt 6255 1345 L
gs 3942 1345 2314 2314 rc
c8
1 0 1 0 1 0 9 0 1 0 1 0 1 0 1 0 
10 0 1 0 1 0 1 0 9 0 1 0 1 0 1 0 
1 0 9 0 1 0 1 0 1 0 1 0 9 0 1 0 
1 0 1 0 10 0 1 0 1 0 1 0 10 0 1 0 
1 0 1 0 10 0 1 0 1 0 1 0 9 0 1 0 
1 0 1 0 10 0 1 0 1 0 1 0 9 0 1 0 
1 0 1 0 1 0 9 0 1 0 1 0 1 0 10 0 
1 0 1 0 1 0 9 0 1 0 1 0 1 0 10 0 
1 0 1 0 1 0 9 0 1 0 1 0 1 0 10 0 
1 0 1 0 1 0 9 0 1 0 1 0 1 0 10 0 
1 0 1 0 1 0 10 0 1 0 1 0 1 0 9 0 
1 0 1 0 1 0 9 0 1 0 1 0 1 0 10 0 
1 0 1 0 1 0 9 0 1 0 1 0 1 0 10 0 
1 0 1 0 10 0 1 0 1 0 10 0 1 0 1 0 
1 0 10 0 1 0 1 0 10 0 1 0 1 0 10 0 
1 0 1 0 1 0 9 0 1 0 1 0 1 0 9 0 
1 0 1 0 1 0 10 0 1 0 1 0 10 0 1 0 
1 0 10 0 1 0 1 0 10 0 1 0 1 0 10 0 
1 0 1 0 10 0 1 0 1 0 10 0 1 0 1 0 
10 0 1 0 1 0 10 0 1 0 1 0 9 0 1 0 
1 0 10 0 1 0 1 0 10 0 1 0 1 0 10 0 
1 0 10 0 1 0 1 0 10 0 1 0 1 0 10 0 
1 0 1 0 10 0 1 0 1 0 9 0 1 0 1 0 
10 0 1 0 10 0 1 0 1 -1 10 0 1 0 1 0 
9 0 1 0 1 0 9 0 1 0 1 0 10 0 1 -1 
10 0 1 -1 1 0 10 0 1 0 -1 0 11 -1 1 0 
1 -1 9 0 1 -2 1 0 10 -1 1 0 -1 0 11 -1 
1 0 1 -1 9 -1 1 -1 1 -1 9 -4 1 -1 1 0 
10 -1 0 -2 1 -1 10 0 1 -1 9 -1 1 0 0 -3 
10 -4 1 -1 0 -11 10 -1 1 -1 0 -1 10 -1 1 -3 
9 -3 1 0 -1 0 2 -3 0 -2 10 -1 1 0 0 -7 
10 0 0 -11 1 -1 9 -1 1 -28 0 -2 10 -1 0 -2 
1 -2 0 -2 10 -3 1 -4 0 -7 10 -1 0 -2 1 -5 
9 -2 1 -2 0 -1 10 -5 1 -12 0 -1 10 -25 0 -3 
10 -3 0 -71 1 -2 10 -2 0 -2 10 -3 0 -3 10 -5 
1 -7 9 -7 1 -19 9 -2 1 -3 0 -5 1 0 1 0 
1 0 1 0 1 0 1 0 4 0 0 -7 1 -5 5 -2 
1 0 1 0 1 0 5135 1682 300 MP stroke
1 0 1 -2 0 -12 1 0 1 0 1 0 1 0 1 0 
1 0 4 0 0 -22 6 -2 1 0 1 0 1 0 1 0 
0 -64 1 -1 1 0 1 0 1 0 1 0 1 0 4 0 
0 -3 5 -4 1 0 1 0 1 0 1 0 1 0 1 -178 
0 -4 1 0 1 0 1 0 1 0 5 0 1 -4 0 -2 
4 -3 1 0 1 0 1 0 1 0 1 0 1 0 0 -2 
1 -1 1 0 1 0 1 0 6 0 1 -10 2 -1 1 0 
1 0 1 0 1 0 1 0 1 0 1 0 1 -17 1 0 
1 0 7 0 2 -44 1 0 1 0 1 0 1 0 1 0 
1 0 1 0 1 0 1 -1 9 0 1 -3 1 0 1 0 
1 0 1 0 1 0 1 0 1 0 1 0 1 -3 9 0 
1 -7 1 0 1 0 1 0 1 0 1 0 1 0 1 0 
1 0 1 0 9 -16 0 -3 1 0 1 0 1 0 1 0 
1 0 1 0 1 0 1 0 1 0 1 0 9 -7 1 0 
0 -3 1 0 1 0 1 0 1 0 1 0 1 0 4 0 
6 -2 1 0 1 0 1 0 0 -21 1 0 1 0 1 0 
1 0 1 0 5 0 5 -39 1 0 1 0 1 0 1 0 
1 0 0 -3 1 0 1 0 8 0 2 -109 1 0 1 0 
1 0 1 0 1 0 1 0 1 0 1 -5 9 0 1 -1 
1 0 1 0 1 0 1 0 1 0 1 0 1 0 2 0 
7 -3 1 0 1 0 1 0 0 -7 1 0 1 0 1 0 
1 0 5 0 4 -442 1 0 1 0 1 0 1 0 1 0 
1 0 1 0 10 0 1 0 1 0 1 0 1 0 1 0 
1 0 10 0 1 0 1 0 1 0 1 0 1 -1 1 0 
10 0 1 0 1 0 1 0 1 -1 1 0 10 0 1 0 
1 0 1 0 1 -1 1 -1 0 -1 10 0 1 0 1 -1 
1 0 1 0 -1 0 11 -2 1 0 1 -3 1 -1 1 -1 
1 -1 1 -1 9 0 1 -1 1 -2 0 -2 1 -1 1 -8 
1 -1 1 -1 9 0 1 -2 0 -2 2 -2 0 -1 1 -1 
0 -5 10 0 1 -7 1 -1 0 -19 1 -1 0 -2 1 -2 
0 -1 10 -2 1 -2 0 -6 1 0 0 -5 1 -1 0 -2 
1 0 10 -4 0 -8 1 -17 0 -2 1 -2 0 -47 1 -2 
0 -1 1 -1 9 -2 1 -2 0 -3 1 -5 0 -5 1 -12 
0 -2 1 -2 9 -3 1 -5 0 -3 1 -1 0 -2 1 -8 
0 -15 1 -1 0 -42 10 -1 0 -2 1 -3 0 -118 1 -3 
0 -3 10 -1 0 -2 1 -2 1 -7 1 -12 9 -29 1 -1 
0 -2 1 -2 0 -5 1 -10 10 -2 0 -7 1 -1 0 -14 
1 -26 0 -2 10 -73 4609 3353 300 MP stroke
0 -3 1 -1 0 -2 1 -4 0 -295 665 0 3942 3658 7 MP stroke
gr

c8
0 sg
4975 1250 mt 
(CDF) s

end %%Color Dict

eplot
%%EndObject

epage
end

showpage

%%Trailer
%%EOF
