%!PS-Adobe-3.0 EPSF-3.0
%%Creator: MATLAB, The MathWorks, Inc. Version 7.14.0.739 (R2012a). Operating System: Linux 2.6.32-431.el6.x86_64 #1 SMP Fri Nov 22 03:15:09 UTC 2013 x86_64.
%%Title: ./ps5q2figD.eps
%%CreationDate: 02/18/2014  21:28:39
%%DocumentNeededFonts: Helvetica
%%DocumentProcessColors: Cyan Magenta Yellow Black
%%LanguageLevel: 2
%%Pages: 1
%%BoundingBox:    78   202   548   598
%%EndComments

%%BeginProlog
% MathWorks dictionary
/MathWorks 160 dict begin
% definition operators
/bdef {bind def} bind def
/ldef {load def} bind def
/xdef {exch def} bdef
/xstore {exch store} bdef
% operator abbreviations
/c  /clip ldef
/cc /concat ldef
/cp /closepath ldef
/gr /grestore ldef
/gs /gsave ldef
/mt /moveto ldef
/np /newpath ldef
/cm /currentmatrix ldef
/sm /setmatrix ldef
/rm /rmoveto ldef
/rl /rlineto ldef
/s {show newpath} bdef
/sc {setcmykcolor} bdef
/sr /setrgbcolor ldef
/sg /setgray ldef
/w /setlinewidth ldef
/j /setlinejoin ldef
/cap /setlinecap ldef
/rc {rectclip} bdef
/rf {rectfill} bdef
% page state control
/pgsv () def
/bpage {/pgsv save def} bdef
/epage {pgsv restore} bdef
/bplot /gsave ldef
/eplot {stroke grestore} bdef
% orientation switch
/portraitMode 0 def /landscapeMode 1 def /rotateMode 2 def
% coordinate system mappings
/dpi2point 0 def
% font control
/FontSize 0 def
/FMS {/FontSize xstore findfont [FontSize 0 0 FontSize neg 0 0]
  makefont setfont} bdef
/reencode {exch dup where {pop load} {pop StandardEncoding} ifelse
  exch dup 3 1 roll findfont dup length dict begin
  { 1 index /FID ne {def}{pop pop} ifelse } forall
  /Encoding exch def currentdict end definefont pop} bdef
/isroman {findfont /CharStrings get /Agrave known} bdef
/FMSR {3 1 roll 1 index dup isroman {reencode} {pop pop} ifelse
  exch FMS} bdef
/csm {1 dpi2point div -1 dpi2point div scale neg translate
 dup landscapeMode eq {pop -90 rotate}
  {rotateMode eq {90 rotate} if} ifelse} bdef
% line types: solid, dotted, dashed, dotdash
/SO { [] 0 setdash } bdef
/DO { [.5 dpi2point mul 4 dpi2point mul] 0 setdash } bdef
/DA { [6 dpi2point mul] 0 setdash } bdef
/DD { [.5 dpi2point mul 4 dpi2point mul 6 dpi2point mul 4
  dpi2point mul] 0 setdash } bdef
% macros for lines and objects
/L {lineto stroke} bdef
/MP {3 1 roll moveto 1 sub {rlineto} repeat} bdef
/AP {{rlineto} repeat} bdef
/PDlw -1 def
/W {/PDlw currentlinewidth def setlinewidth} def
/PP {closepath eofill} bdef
/DP {closepath stroke} bdef
/MR {4 -2 roll moveto dup  0 exch rlineto exch 0 rlineto
  neg 0 exch rlineto closepath} bdef
/FR {MR stroke} bdef
/PR {MR fill} bdef
/L1i {{currentfile picstr readhexstring pop} image} bdef
/tMatrix matrix def
/MakeOval {newpath tMatrix currentmatrix pop translate scale
0 0 1 0 360 arc tMatrix setmatrix} bdef
/FO {MakeOval stroke} bdef
/PO {MakeOval fill} bdef
/PD {currentlinewidth 2 div 0 360 arc fill
   PDlw -1 eq not {PDlw w /PDlw -1 def} if} def
/FA {newpath tMatrix currentmatrix pop translate scale
  0 0 1 5 -2 roll arc tMatrix setmatrix stroke} bdef
/PA {newpath tMatrix currentmatrix pop	translate 0 0 moveto scale
  0 0 1 5 -2 roll arc closepath tMatrix setmatrix fill} bdef
/FAn {newpath tMatrix currentmatrix pop translate scale
  0 0 1 5 -2 roll arcn tMatrix setmatrix stroke} bdef
/PAn {newpath tMatrix currentmatrix pop translate 0 0 moveto scale
  0 0 1 5 -2 roll arcn closepath tMatrix setmatrix fill} bdef
/vradius 0 def /hradius 0 def /lry 0 def
/lrx 0 def /uly 0 def /ulx 0 def /rad 0 def
/MRR {/vradius xdef /hradius xdef /lry xdef /lrx xdef /uly xdef
  /ulx xdef newpath tMatrix currentmatrix pop ulx hradius add uly
  vradius add translate hradius vradius scale 0 0 1 180 270 arc 
  tMatrix setmatrix lrx hradius sub uly vradius add translate
  hradius vradius scale 0 0 1 270 360 arc tMatrix setmatrix
  lrx hradius sub lry vradius sub translate hradius vradius scale
  0 0 1 0 90 arc tMatrix setmatrix ulx hradius add lry vradius sub
  translate hradius vradius scale 0 0 1 90 180 arc tMatrix setmatrix
  closepath} bdef
/FRR {MRR stroke } bdef
/PRR {MRR fill } bdef
/MlrRR {/lry xdef /lrx xdef /uly xdef /ulx xdef /rad lry uly sub 2 div def
  newpath tMatrix currentmatrix pop ulx rad add uly rad add translate
  rad rad scale 0 0 1 90 270 arc tMatrix setmatrix lrx rad sub lry rad
  sub translate rad rad scale 0 0 1 270 90 arc tMatrix setmatrix
  closepath} bdef
/FlrRR {MlrRR stroke } bdef
/PlrRR {MlrRR fill } bdef
/MtbRR {/lry xdef /lrx xdef /uly xdef /ulx xdef /rad lrx ulx sub 2 div def
  newpath tMatrix currentmatrix pop ulx rad add uly rad add translate
  rad rad scale 0 0 1 180 360 arc tMatrix setmatrix lrx rad sub lry rad
  sub translate rad rad scale 0 0 1 0 180 arc tMatrix setmatrix
  closepath} bdef
/FtbRR {MtbRR stroke } bdef
/PtbRR {MtbRR fill } bdef
/stri 6 array def /dtri 6 array def
/smat 6 array def /dmat 6 array def
/tmat1 6 array def /tmat2 6 array def /dif 3 array def
/asub {/ind2 exch def /ind1 exch def dup dup
  ind1 get exch ind2 get sub exch } bdef
/tri_to_matrix {
  2 0 asub 3 1 asub 4 0 asub 5 1 asub
  dup 0 get exch 1 get 7 -1 roll astore } bdef
/compute_transform {
  dmat dtri tri_to_matrix tmat1 invertmatrix 
  smat stri tri_to_matrix tmat2 concatmatrix } bdef
/ds {stri astore pop} bdef
/dt {dtri astore pop} bdef
/db {2 copy /cols xdef /rows xdef mul dup 3 mul string
  currentfile 
  3 index 0 eq {/ASCIIHexDecode filter}
  {/ASCII85Decode filter 3 index 2 eq {/RunLengthDecode filter} if }
  ifelse exch readstring pop
  dup 0 3 index getinterval /rbmap xdef
  dup 2 index dup getinterval /gbmap xdef
  1 index dup 2 mul exch getinterval /bbmap xdef pop pop}bdef
/it {gs np dtri aload pop moveto lineto lineto cp c
  cols rows 8 compute_transform 
  rbmap gbmap bbmap true 3 colorimage gr}bdef
/il {newpath moveto lineto stroke}bdef
currentdict end def
%%EndProlog

%%BeginSetup
MathWorks begin

0 cap

end
%%EndSetup

%%Page: 1 1
%%BeginPageSetup
%%PageBoundingBox:    78   202   548   598
MathWorks begin
bpage
%%EndPageSetup

%%BeginObject: obj1
bplot

/dpi2point 12 def
portraitMode 0216 7344 csm

  731   162  5640  4755 rc
76 dict begin %Colortable dictionary
/c0 { 0.000000 0.000000 0.000000 sr} bdef
/c1 { 1.000000 1.000000 1.000000 sr} bdef
/c2 { 0.900000 0.000000 0.000000 sr} bdef
/c3 { 0.000000 0.820000 0.000000 sr} bdef
/c4 { 0.000000 0.000000 0.800000 sr} bdef
/c5 { 0.910000 0.820000 0.320000 sr} bdef
/c6 { 1.000000 0.260000 0.820000 sr} bdef
/c7 { 0.000000 0.820000 0.820000 sr} bdef
c0
1 j
1 sg
   0    0 6913 5186 rf
6 w
0 1029 5356 0 0 -1029 899 1470 4 MP
PP
-5356 0 0 1029 5356 0 0 -1029 899 1470 5 MP stroke
4 w
DO
SO
6 w
0 sg
 899 1470 mt 6255 1470 L
 899  441 mt 6255  441 L
 899 1470 mt  899  441 L
6255 1470 mt 6255  441 L
 899 1470 mt 6255 1470 L
 899 1470 mt  899  441 L
 899 1470 mt  899 1416 L
 899  441 mt  899  494 L
%%IncludeResource: font Helvetica
/Helvetica /ISOLatin1Encoding 120 FMSR

 866 1615 mt 
(0) s
1434 1470 mt 1434 1416 L
1434  441 mt 1434  494 L
1401 1615 mt 
(1) s
1970 1470 mt 1970 1416 L
1970  441 mt 1970  494 L
1937 1615 mt 
(2) s
2505 1470 mt 2505 1416 L
2505  441 mt 2505  494 L
2472 1615 mt 
(3) s
3041 1470 mt 3041 1416 L
3041  441 mt 3041  494 L
3008 1615 mt 
(4) s
3577 1470 mt 3577 1416 L
3577  441 mt 3577  494 L
3544 1615 mt 
(5) s
4112 1470 mt 4112 1416 L
4112  441 mt 4112  494 L
4079 1615 mt 
(6) s
4648 1470 mt 4648 1416 L
4648  441 mt 4648  494 L
4615 1615 mt 
(7) s
5183 1470 mt 5183 1416 L
5183  441 mt 5183  494 L
5150 1615 mt 
(8) s
5719 1470 mt 5719 1416 L
5719  441 mt 5719  494 L
5686 1615 mt 
(9) s
6255 1470 mt 6255 1416 L
6255  441 mt 6255  494 L
6189 1615 mt 
(10) s
 899 1470 mt  952 1470 L
6255 1470 mt 6201 1470 L
 798 1514 mt 
(0) s
 899  955 mt  952  955 L
6255  955 mt 6201  955 L
 798  999 mt 
(5) s
 899  441 mt  952  441 L
6255  441 mt 6201  441 L
 731  485 mt 
(10) s
 899 1470 mt 6255 1470 L
 899  441 mt 6255  441 L
 899 1470 mt  899  441 L
6255 1470 mt 6255  441 L
gs 899 441 5357 1030 rc
/c8 { 0.000000 0.000000 1.000000 sr} bdef
c8
2 0 10 -1 11 0 11 -1 11 -1 10 -1 11 -1 11 -1 
11 -1 10 0 11 -1 11 -1 10 -1 11 -1 11 -1 11 -1 
10 -1 11 -1 11 0 11 -1 10 -1 11 -1 11 -1 11 -1 
10 -1 11 -1 11 -1 10 -1 11 0 11 -1 11 -1 10 -1 
11 -1 11 -1 11 -1 10 -1 11 -1 11 -1 11 -1 10 -1 
11 0 11 -1 10 -1 11 -1 11 -1 11 -1 10 -1 11 -1 
11 -1 11 -1 10 -1 11 -1 11 -1 11 -1 10 -1 11 -1 
11 -1 10 -1 11 0 11 -1 11 -1 10 -1 11 -1 11 -1 
11 -1 10 -1 11 -1 11 -1 11 -1 10 -1 11 -1 11 -1 
10 -1 11 -1 11 -1 11 -1 10 -1 11 -1 11 -1 11 -1 
10 -1 11 -1 11 -1 11 -1 10 -1 11 -1 11 -1 10 -1 
11 -1 11 -1 11 -1 10 -1 11 -1 11 -1 11 -1 10 -1 
11 -1 11 -1 11 -1 10 -1 11 -2 11 -1 10 -1 11 -1 
11 -1 11 -1 10 -1 11 -1 11 -1 11 -1 10 -1 11 -1 
11 -1 11 -1 10 -1 11 -1 11 -1 10 -2 11 -1 11 -1 
11 -1 10 -1 11 -1 11 -1 11 -1 10 -1 11 -1 11 -1 
11 -2 10 -1 11 -1 11 -1 10 -1 11 -1 11 -1 11 -1 
10 -1 11 -2 11 -1 11 -1 10 -1 11 -1 11 -1 11 -1 
10 -1 11 -2 11 -1 10 -1 11 -1 11 -1 11 -1 10 -1 
11 -2 11 -1 11 -1 10 -1 11 -1 11 -1 11 -2 10 -1 
11 -1 11 -1 10 -1 11 -2 11 -1 11 -1 10 -1 11 -1 
11 -1 11 -2 10 -1 11 -1 11 -1 11 -1 10 -2 11 -1 
11 -1 10 -1 11 -2 11 -1 11 -1 10 -1 11 -1 11 -2 
11 -1 10 -1 11 -1 11 -2 11 -1 10 -1 11 -1 11 -2 
10 -1 11 -1 11 -1 11 -2 10 -1 11 -1 11 -1 11 -2 
10 -1 11 -1 11 -2 11 -1 10 -1 11 -1 11 -2 10 -1 
11 -1 11 -2 11 -1 10 -1 11 -1 11 -2 11 -1 10 -1 
11 -2 11 -1 11 -1 10 -2 11 -1 11 -1 10 -2 11 -1 
11 -1 11 -2 10 -1 11 -1 11 -2 11 -1 10 -2 11 -1 
11 -1 11 -2 10 -1 11 -1 11 -2 10 -1 11 -2 11 -1 
11 -1 10 -2 11 -1 11 -1 11 -2 10 -1 11 -2 11 -1 
11 -2 10 -1 11 -1 11 -2 10 -1 11 -2 11 -1 11 -1 
10 -2 11 -1 11 -2 11 -1 10 -2 11 -1 11 -2 11 -1 
10 -2 11 -1 11 -2 10 -1 11 -1 11 -2 11 -1 10 -2 
11 -1 11 -2 11 -1 10 -2 11 -1 11 -2 11 -1 10 -2 
11 -1 11 -2 10 -2 899 766 284 MP stroke
/c9 { 0.000000 0.500000 0.000000 sr} bdef
c9
7 0 11 -1 11 0 11 -1 10 -1 11 0 11 -1 11 -1 
10 0 11 -1 11 -1 10 0 11 -1 11 -1 11 0 10 -1 
11 -1 11 0 11 -1 10 -1 11 0 11 -1 11 -1 10 0 
11 -1 11 -1 10 0 11 -1 11 -1 11 -1 10 0 11 -1 
11 -1 11 0 10 -1 11 -1 11 -1 11 0 10 -1 11 -1 
11 0 10 -1 11 -1 11 -1 11 0 10 -1 11 -1 11 -1 
11 0 10 -1 11 -1 11 0 11 -1 10 -1 11 -1 11 0 
10 -1 11 -1 11 -1 11 0 10 -1 11 -1 11 -1 11 -1 
10 0 11 -1 11 -1 11 -1 10 0 11 -1 11 -1 10 -1 
11 0 11 -1 11 -1 10 -1 11 -1 11 0 11 -1 10 -1 
11 -1 11 0 11 -1 10 -1 11 -1 11 -1 10 0 11 -1 
11 -1 11 -1 10 -1 11 0 11 -1 11 -1 10 -1 11 -1 
11 -1 11 0 10 -1 11 -1 11 -1 10 -1 11 0 11 -1 
11 -1 10 -1 11 -1 11 -1 11 -1 10 0 11 -1 11 -1 
11 -1 10 -1 11 -1 11 0 10 -1 11 -1 11 -1 11 -1 
10 -1 11 -1 11 0 11 -1 10 -1 11 -1 11 -1 11 -1 
10 -1 11 -1 11 0 10 -1 11 -1 11 -1 11 -1 10 -1 
11 -1 11 -1 11 -1 10 0 11 -1 11 -1 11 -1 10 -1 
11 -1 11 -1 10 -1 11 -1 11 -1 11 -1 10 0 11 -1 
11 -1 11 -1 10 -1 11 -1 11 -1 11 -1 10 -1 11 -1 
11 -1 10 -1 11 -1 11 -1 11 -1 10 -1 11 0 11 -1 
11 -1 10 -1 11 -1 11 -1 11 -1 10 -1 11 -1 11 -1 
10 -1 11 -1 11 -1 11 -1 10 -1 11 -1 11 -1 11 -1 
10 -1 11 -1 11 -1 11 -1 10 -1 11 -1 11 -1 10 -1 
11 -1 11 -1 11 -1 10 -1 11 -1 11 -1 11 -1 10 -1 
11 -1 11 -1 11 -1 10 -1 11 -1 11 -1 10 -1 11 -1 
11 -1 11 -1 10 -1 11 -1 11 -1 11 -2 10 -1 11 -1 
11 -1 11 -1 10 -1 11 -1 11 -1 10 -1 11 -1 11 -1 
11 -1 10 -1 11 -1 11 -2 11 -1 10 -1 11 -1 11 -1 
11 -1 10 -1 11 -1 11 -1 10 -1 11 -2 11 -1 11 -1 
10 -1 11 -1 11 -1 11 -1 10 -1 11 -1 11 -2 11 -1 
10 -1 11 -1 11 -1 10 -1 11 -1 11 -2 11 -1 10 -1 
11 -1 11 -1 11 -1 10 -2 11 -1 11 -1 11 -1 10 -1 
11 -1 11 -2 10 -1 11 -1 11 -1 11 -1 10 -2 11 -1 
11 -1 11 -1 10 -1 11 -2 11 -1 11 -1 10 -1 11 -1 
11 -2 10 -1 11 -1 11 -1 11 -1 10 -2 11 -1 11 -1 
11 -1 10 -2 11 -1 11 -1 11 -1 10 -2 11 -1 11 -1 
10 -1 11 -2 11 -1 1360 719 300 MP stroke
11 -1 10 -2 11 -1 11 -1 11 -1 10 -2 11 -1 11 -1 
11 -2 10 -1 11 -1 11 -2 10 -1 11 -1 11 -1 11 -2 
10 -1 11 -1 11 -2 11 -1 10 -1 11 -2 11 -1 11 -1 
10 -2 11 -1 11 -1 10 -2 11 -1 11 -2 11 -1 10 -1 
11 -2 11 -1 11 -1 10 -2 11 -1 11 -2 11 -1 10 -1 
11 -2 11 -1 10 -2 899 777 44 MP stroke
DO
18 w
c8
11 -1 11 0 11 -1 10 0 11 0 11 -1 11 0 10 -1 
11 0 11 -1 11 0 10 -1 11 0 11 0 11 -1 10 0 
11 -1 11 0 10 -1 11 0 11 -1 11 0 10 -1 11 0 
11 -1 11 0 10 0 11 -1 11 0 11 -1 10 0 11 -1 
11 0 10 -1 11 0 11 -1 11 0 10 -1 11 0 11 0 
11 -1 10 0 11 -1 11 0 11 -1 10 0 11 -1 11 0 
10 -1 11 0 11 -1 11 0 10 0 11 -1 11 0 11 -1 
10 0 11 -1 11 0 11 -1 10 0 11 -1 11 0 10 -1 
11 0 11 -1 11 0 10 -1 11 0 11 -1 11 0 10 0 
11 -1 11 0 11 -1 10 0 11 -1 11 0 10 -1 11 0 
11 -1 11 0 10 -1 11 0 11 -1 11 0 10 -1 11 0 
11 -1 11 0 10 -1 11 0 11 -1 10 0 11 -1 11 0 
11 0 10 -1 11 0 11 -1 11 0 10 -1 11 0 11 -1 
11 0 10 -1 11 0 11 -1 10 0 11 -1 11 0 11 -1 
10 0 11 -1 11 0 11 -1 10 0 11 -1 11 0 11 -1 
10 0 11 -1 11 0 10 -1 11 0 11 -1 11 0 10 -1 
11 0 11 -1 11 0 10 -1 11 0 11 -1 11 0 10 -1 
11 0 11 -1 10 0 11 -1 11 0 11 -1 10 0 11 -1 
11 0 11 -1 10 0 11 -1 11 0 11 -1 10 0 11 -1 
11 0 10 -1 11 0 11 -1 11 0 10 -1 11 0 11 -1 
11 0 10 -1 11 0 11 -1 11 -1 10 0 11 -1 11 0 
10 -1 11 0 11 -1 11 0 10 -1 11 0 11 -1 11 0 
10 -1 11 0 11 -1 11 0 10 -1 11 0 11 -1 10 0 
11 -1 11 0 11 -1 10 -1 11 0 11 -1 11 0 10 -1 
11 0 11 -1 11 0 10 -1 11 0 11 -1 10 0 11 -1 
11 0 11 -1 10 0 11 -1 11 -1 11 0 10 -1 11 0 
11 -1 11 0 10 -1 11 0 11 -1 10 0 11 -1 11 0 
11 -1 10 -1 11 0 11 -1 11 0 10 -1 11 0 11 -1 
11 0 10 -1 11 -1 11 0 10 -1 11 0 11 -1 11 0 
10 -1 11 0 11 -1 11 0 10 -1 11 -1 11 0 11 -1 
10 0 11 -1 11 0 10 -1 11 0 11 -1 11 -1 10 0 
11 -1 11 0 11 -1 10 0 11 -1 11 -1 11 0 10 -1 
11 0 11 -1 10 0 11 -1 11 -1 11 0 10 -1 11 0 
11 -1 11 0 10 -1 11 -1 11 0 11 -1 10 0 11 -1 
11 0 10 -1 11 -1 11 0 11 -1 10 0 11 -1 11 0 
11 -1 10 -1 11 0 11 -1 11 0 10 -1 11 -1 11 0 
10 -1 11 0 11 -1 11 -1 10 0 11 -1 11 0 11 -1 
10 -1 11 0 11 -1 3045 721 300 MP stroke
11 0 10 -1 11 -1 11 0 10 -1 11 0 11 -1 11 -1 
10 0 11 -1 11 0 11 -1 10 -1 11 0 11 -1 11 0 
10 -1 11 -1 11 0 10 -1 11 0 11 -1 11 -1 10 0 
11 -1 11 -1 11 0 10 -1 11 0 11 -1 11 -1 10 0 
11 -1 11 -1 10 0 11 -1 11 0 11 -1 10 -1 11 0 
11 -1 11 -1 10 0 11 -1 11 0 11 -1 10 -1 11 0 
11 -1 10 -1 11 0 11 -1 11 -1 10 0 11 -1 11 -1 
11 0 10 -1 11 0 11 -1 11 -1 10 0 11 -1 11 -1 
10 0 11 -1 11 -1 11 0 10 -1 11 -1 11 0 11 -1 
10 -1 11 0 11 -1 11 -1 10 0 11 -1 11 -1 10 0 
11 -1 11 -1 11 0 10 -1 11 -1 11 -1 11 0 10 -1 
11 -1 11 0 11 -1 10 -1 11 0 11 -1 10 -1 11 0 
11 -1 11 -1 10 0 11 -1 11 -1 11 -1 10 0 11 -1 
11 -1 11 0 10 -1 11 -1 11 -1 10 0 11 -1 11 -1 
11 0 10 -1 11 -1 11 -1 11 0 10 -1 11 -1 11 -1 
11 0 10 -1 11 -1 11 0 10 -1 11 -1 11 -1 11 0 
10 -1 11 -1 11 -1 11 0 10 -1 11 -1 11 -1 11 -1 
10 0 11 -1 11 -1 10 -1 11 0 11 -1 11 -1 10 -1 
11 0 11 -1 11 -1 10 -1 11 -1 11 0 11 -1 10 -1 
11 -1 11 -1 10 0 11 -1 11 -1 11 -1 10 -1 11 0 
11 -1 11 -1 10 -1 11 -1 11 -1 11 -1 10 0 11 -1 
11 -1 10 -1 11 -1 11 -1 11 -1 10 0 11 -1 11 -1 
11 -1 10 -1 11 -1 11 -1 11 -1 10 -1 11 0 11 -1 
10 -1 11 -1 11 -1 11 -1 10 -1 11 -1 11 -1 11 -1 
10 -1 11 -1 11 -1 11 -1 10 -1 11 -1 11 -1 10 -1 
899 867 201 MP stroke
c9
11 -1 11 0 11 -1 10 0 11 0 11 -1 11 0 10 -1 
11 0 11 -1 11 0 10 0 11 -1 11 0 11 -1 10 0 
11 0 11 -1 10 0 11 -1 11 0 11 -1 10 0 11 0 
11 -1 11 0 10 -1 11 0 11 0 11 -1 10 0 11 -1 
11 0 10 -1 11 0 11 0 11 -1 10 0 11 -1 11 0 
11 -1 10 0 11 0 11 -1 11 0 10 -1 11 0 11 -1 
10 0 11 0 11 -1 11 0 10 -1 11 0 11 -1 11 0 
10 0 11 -1 11 0 11 -1 10 0 11 -1 11 0 10 0 
11 -1 11 0 11 -1 10 0 11 -1 11 0 11 0 10 -1 
11 0 11 -1 11 0 10 -1 11 0 11 -1 10 0 11 0 
11 -1 11 0 10 -1 11 0 11 -1 11 0 10 0 11 -1 
11 0 11 -1 10 0 11 -1 11 0 10 -1 11 0 11 0 
11 -1 10 0 11 -1 11 0 11 -1 10 0 11 -1 11 0 
11 0 10 -1 11 0 11 -1 10 0 11 -1 11 0 11 -1 
10 0 11 0 11 -1 11 0 10 -1 11 0 11 -1 11 0 
10 -1 11 0 11 -1 10 0 11 0 11 -1 11 0 10 -1 
11 0 11 -1 11 0 10 -1 11 0 11 -1 11 0 10 0 
11 -1 11 0 10 -1 11 0 11 -1 11 0 10 -1 11 0 
11 -1 11 0 10 -1 11 0 11 0 11 -1 10 0 11 -1 
11 0 10 -1 11 0 11 -1 11 0 10 -1 11 0 11 -1 
11 0 10 -1 11 0 11 0 11 -1 10 0 11 -1 11 0 
10 -1 11 0 11 -1 11 0 10 -1 11 0 11 -1 11 0 
10 -1 11 0 11 -1 11 0 10 0 11 -1 11 0 10 -1 
11 0 11 -1 11 0 10 -1 11 0 11 -1 11 0 10 -1 
11 0 11 -1 11 0 10 -1 11 0 11 -1 10 0 11 -1 
11 0 11 -1 10 0 11 -1 11 0 11 -1 10 0 11 -1 
11 0 11 0 10 -1 11 0 11 -1 10 0 11 -1 11 0 
11 -1 10 0 11 -1 11 0 11 -1 10 0 11 -1 11 0 
11 -1 10 0 11 -1 11 0 10 -1 11 0 11 -1 11 0 
10 -1 11 0 11 -1 11 0 10 -1 11 0 11 -1 11 0 
10 -1 11 0 11 -1 10 0 11 -1 11 0 11 -1 10 0 
11 -1 11 0 11 -1 10 0 11 -1 11 0 11 -1 10 0 
11 -1 11 -1 10 0 11 -1 11 0 11 -1 10 0 11 -1 
11 0 11 -1 10 0 11 -1 11 0 11 -1 10 0 11 -1 
11 0 10 -1 11 0 11 -1 11 0 10 -1 11 0 11 -1 
11 0 10 -1 11 0 11 -1 11 -1 10 0 11 -1 11 0 
10 -1 11 0 11 -1 11 0 10 -1 11 0 11 -1 11 0 
10 -1 11 0 11 -1 3045 774 300 MP stroke
11 -1 10 0 11 -1 11 0 10 -1 11 0 11 -1 11 0 
10 -1 11 0 11 -1 11 0 10 -1 11 -1 11 0 11 -1 
10 0 11 -1 11 0 10 -1 11 0 11 -1 11 0 10 -1 
11 -1 11 0 11 -1 10 0 11 -1 11 0 11 -1 10 0 
11 -1 11 -1 10 0 11 -1 11 0 11 -1 10 0 11 -1 
11 0 11 -1 10 -1 11 0 11 -1 11 0 10 -1 11 0 
11 -1 10 -1 11 0 11 -1 11 0 10 -1 11 0 11 -1 
11 -1 10 0 11 -1 11 0 11 -1 10 0 11 -1 11 -1 
10 0 11 -1 11 0 11 -1 10 -1 11 0 11 -1 11 0 
10 -1 11 0 11 -1 11 -1 10 0 11 -1 11 0 10 -1 
11 -1 11 0 11 -1 10 0 11 -1 11 -1 11 0 10 -1 
11 0 11 -1 11 -1 10 0 11 -1 11 0 10 -1 11 -1 
11 0 11 -1 10 0 11 -1 11 -1 11 0 10 -1 11 0 
11 -1 11 -1 10 0 11 -1 11 -1 10 0 11 -1 11 0 
11 -1 10 -1 11 0 11 -1 11 -1 10 0 11 -1 11 0 
11 -1 10 -1 11 0 11 -1 10 -1 11 0 11 -1 11 -1 
10 0 11 -1 11 0 11 -1 10 -1 11 0 11 -1 11 -1 
10 0 11 -1 11 -1 10 0 11 -1 11 -1 11 0 10 -1 
11 -1 11 0 11 -1 10 -1 11 0 11 -1 11 -1 10 0 
11 -1 11 -1 10 0 11 -1 11 -1 11 0 10 -1 11 -1 
11 0 11 -1 10 -1 11 0 11 -1 11 -1 10 0 11 -1 
11 -1 10 0 11 -1 11 -1 11 -1 10 0 11 -1 11 -1 
11 0 10 -1 11 -1 11 -1 11 0 10 -1 11 -1 11 0 
10 -1 11 -1 11 -1 11 0 10 -1 11 -1 11 -1 11 0 
10 -1 11 -1 11 0 11 -1 10 -1 11 -1 11 0 10 -1 
899 898 201 MP stroke
gr

18 w
c9
DO
0 sg
3180  346 mt 
(Value Function) s
3234 1758 mt 
(Assets today) s
 882 1513 mt 
( ) s
6239  483 mt 
( ) s
SO
6 w
1 sg
0 1030 5356 0 0 -1030 899 3024 4 MP
PP
-5356 0 0 1030 5356 0 0 -1030 899 3024 5 MP stroke
4 w
DO
SO
6 w
0 sg
 899 3024 mt 6255 3024 L
 899 1994 mt 6255 1994 L
 899 3024 mt  899 1994 L
6255 3024 mt 6255 1994 L
 899 3024 mt 6255 3024 L
 899 3024 mt  899 1994 L
 899 3024 mt  899 2970 L
 899 1994 mt  899 2047 L
 866 3169 mt 
(0) s
1434 3024 mt 1434 2970 L
1434 1994 mt 1434 2047 L
1401 3169 mt 
(1) s
1970 3024 mt 1970 2970 L
1970 1994 mt 1970 2047 L
1937 3169 mt 
(2) s
2505 3024 mt 2505 2970 L
2505 1994 mt 2505 2047 L
2472 3169 mt 
(3) s
3041 3024 mt 3041 2970 L
3041 1994 mt 3041 2047 L
3008 3169 mt 
(4) s
3577 3024 mt 3577 2970 L
3577 1994 mt 3577 2047 L
3544 3169 mt 
(5) s
4112 3024 mt 4112 2970 L
4112 1994 mt 4112 2047 L
4079 3169 mt 
(6) s
4648 3024 mt 4648 2970 L
4648 1994 mt 4648 2047 L
4615 3169 mt 
(7) s
5183 3024 mt 5183 2970 L
5183 1994 mt 5183 2047 L
5150 3169 mt 
(8) s
5719 3024 mt 5719 2970 L
5719 1994 mt 5719 2047 L
5686 3169 mt 
(9) s
6255 3024 mt 6255 2970 L
6255 1994 mt 6255 2047 L
6189 3169 mt 
(10) s
 899 3024 mt  952 3024 L
6255 3024 mt 6201 3024 L
 798 3068 mt 
(0) s
 899 2509 mt  952 2509 L
6255 2509 mt 6201 2509 L
 798 2553 mt 
(5) s
 899 1994 mt  952 1994 L
6255 1994 mt 6201 1994 L
 731 2038 mt 
(10) s
 899 3024 mt 6255 3024 L
 899 1994 mt 6255 1994 L
 899 3024 mt  899 1994 L
6255 3024 mt 6255 1994 L
gs 899 1994 5357 1031 rc
c8
11 -2 11 0 11 -2 10 -3 11 0 11 -2 11 0 10 -2 
11 -2 11 0 11 -2 10 -2 11 0 11 -2 11 0 10 -2 
11 -2 11 0 10 -2 11 -2 11 0 11 -2 10 0 11 -2 
11 -2 11 0 10 -2 11 0 11 -3 11 -2 10 0 11 -2 
11 0 10 -2 11 -2 11 0 11 -2 10 -2 11 0 11 -2 
11 -2 10 0 11 -2 11 -2 11 0 10 -2 11 0 11 -2 
10 -2 11 0 11 -2 11 -2 10 -3 11 -2 11 -2 11 0 
10 -2 11 -2 11 -2 11 -2 10 -2 11 0 11 -2 10 -2 
11 -2 11 -2 11 -2 10 0 11 -2 11 -2 11 -3 10 -2 
11 -2 11 0 11 -2 10 -2 11 -2 11 -2 10 0 11 -2 
11 -2 11 -2 10 -2 11 -2 11 0 11 -2 10 -2 11 -2 
11 -2 11 0 10 -3 11 -2 11 -2 10 -2 11 -2 11 0 
11 -2 10 -2 11 -2 11 -2 11 0 10 -2 11 -2 11 -2 
11 -2 10 -2 11 0 11 -2 10 -2 11 -3 11 -2 11 0 
10 -2 11 -2 11 -2 11 -2 10 -2 11 0 11 -2 11 -2 
10 -2 11 -2 11 0 10 -2 11 -2 11 -2 11 -2 10 -3 
11 0 11 -2 11 -2 10 -2 11 -2 11 0 11 -2 10 -2 
11 -2 11 -2 10 -2 11 -2 11 0 11 -2 10 -2 11 -2 
11 -2 11 -2 10 -3 11 -2 11 -2 11 0 10 -2 11 -2 
11 -2 10 -2 11 -2 11 -2 11 -2 10 -2 11 -2 11 0 
11 -2 10 -2 11 -2 11 -3 11 -2 10 -2 11 -2 11 -2 
10 -2 11 -2 11 0 11 -2 10 -2 11 -2 11 -2 11 -2 
10 -2 11 -2 11 -2 11 -2 10 -3 11 0 11 -2 10 -2 
11 -2 11 -2 11 -2 10 -2 11 -2 11 -2 11 -2 10 -2 
11 -2 11 0 11 -2 10 -2 11 -2 11 -2 10 -3 11 -2 
11 -2 11 -2 10 -2 11 0 11 -2 11 -2 10 -2 11 -2 
11 -2 11 -2 10 -2 11 -2 11 -2 10 0 11 -2 11 -3 
11 -2 10 -2 11 -2 11 -2 11 -2 10 -2 11 -2 11 -2 
11 -2 10 0 11 -2 11 -2 10 -2 11 -2 11 -2 11 -2 
10 -3 11 -2 11 -2 11 -2 10 -2 11 -2 11 -2 11 -2 
10 -2 11 0 11 -2 10 -2 11 -2 11 -2 11 -2 10 -2 
11 -3 11 -2 11 -2 10 -2 11 -2 11 -2 11 -2 10 -2 
11 -2 11 -2 10 -2 11 -2 11 -2 11 0 10 -2 11 -2 
11 -2 11 -3 10 -2 11 -2 11 -2 11 -2 10 -2 11 -2 
11 -2 10 -2 11 -2 11 -2 11 -2 10 -2 11 -2 11 -2 
11 -2 10 -3 11 -2 11 0 11 -2 10 -2 11 -2 11 -2 
10 -2 11 -2 11 -2 11 -2 10 -2 11 -2 11 -2 11 -2 
10 -2 11 -3 11 -2 3045 2576 300 MP stroke
11 -2 10 -2 11 -2 11 -2 10 -2 11 -2 11 -2 11 -2 
10 0 11 -2 11 -2 11 -2 10 -2 11 -2 11 -2 11 -3 
10 -2 11 -2 11 -2 10 -2 11 -2 11 -2 11 -2 10 -2 
11 -2 11 -2 11 -2 10 -2 11 -2 11 -2 11 -3 10 -2 
11 -2 11 -2 10 -2 11 -2 11 -2 11 -2 10 -2 11 -2 
11 -2 11 -2 10 -2 11 0 11 -2 11 -2 10 -2 11 -3 
11 -2 10 -2 11 -2 11 -2 11 -2 10 -2 11 -2 11 -2 
11 -2 10 -2 11 -2 11 -2 11 -2 10 -2 11 -2 11 -3 
10 -2 11 -2 11 -2 11 -2 10 -2 11 -2 11 -2 11 -2 
10 -2 11 -2 11 -2 11 -2 10 -2 11 -2 11 -3 10 -2 
11 -2 11 -2 11 -2 10 -2 11 -2 11 -2 11 -2 10 -2 
11 -2 11 -2 11 -2 10 -2 11 -2 11 -2 10 -3 11 -2 
11 -2 11 -2 10 -2 11 -2 11 -2 11 -2 10 -2 11 -2 
11 -2 11 -2 10 -2 11 -2 11 -2 10 -3 11 -2 11 -2 
11 -2 10 -2 11 -2 11 -2 11 -2 10 -2 11 -2 11 -2 
11 -2 10 -2 11 -2 11 -2 10 -2 11 -3 11 -2 11 -2 
10 -2 11 -2 11 0 11 -2 10 -2 11 -4 11 -2 11 -2 
10 -2 11 -2 11 -2 10 -2 11 -2 11 -3 11 0 10 -2 
11 -2 11 -4 11 -2 10 -2 11 -2 11 -2 11 -2 10 -2 
11 -2 11 -2 10 -2 11 -2 11 -3 11 -2 10 -2 11 -2 
11 -2 11 -2 10 -2 11 -2 11 -2 11 -2 10 -2 11 -2 
11 -2 10 -2 11 -2 11 -2 11 -3 10 -2 11 -2 11 -2 
11 -2 10 -2 11 -2 11 -2 11 -2 10 -2 11 -2 11 -2 
10 -2 11 -2 11 -2 11 -3 10 -2 11 -2 11 -2 11 -2 
10 -2 11 -2 11 -2 11 -2 10 -2 11 -2 11 -2 10 -2 
899 2984 201 MP stroke
c9
11 0 11 0 11 0 10 0 11 0 11 0 11 0 10 0 
11 0 11 0 11 0 10 0 11 0 11 0 11 0 10 0 
11 0 11 0 10 0 11 0 11 0 11 0 10 0 11 0 
11 0 11 0 10 0 11 0 11 0 11 0 10 0 11 0 
11 0 10 0 11 0 11 0 11 0 10 0 11 0 11 0 
11 0 10 0 11 0 11 0 11 0 10 0 11 0 11 0 
10 0 11 0 11 0 11 0 10 0 11 0 11 0 11 0 
10 0 11 0 11 0 11 0 10 -2 11 -2 11 -2 10 0 
11 -2 11 -2 11 -2 10 -2 11 -2 11 0 11 -2 10 -2 
11 -2 11 -2 11 -2 10 0 11 -2 11 -2 10 -3 11 -2 
11 0 11 -2 10 -2 11 -2 11 -2 11 -2 10 0 11 -2 
11 -2 11 -2 10 -2 11 0 11 -2 10 -2 11 -2 11 -2 
11 -2 10 0 11 -3 11 -2 11 -2 10 -2 11 0 11 -2 
11 -2 10 -2 11 -2 11 -2 10 0 11 -2 11 -2 11 -2 
10 -2 11 0 11 -2 11 -2 10 -3 11 -2 11 0 11 -2 
10 -2 11 -2 11 -2 10 -2 11 0 11 -2 11 -2 10 -2 
11 -2 11 -2 11 0 10 -2 11 -2 11 -2 11 -2 10 -3 
11 -2 11 -2 10 -2 11 -2 11 -2 11 -2 10 -2 11 -2 
11 -2 11 -2 10 -2 11 -2 11 -2 11 -2 10 -3 11 -2 
11 -2 10 -2 11 -2 11 -2 11 -2 10 -2 11 -2 11 -2 
11 -2 10 0 11 -2 11 -2 11 -2 10 -2 11 -2 11 -3 
10 -2 11 -2 11 -2 11 -2 10 -2 11 -2 11 -2 11 -2 
10 -2 11 -2 11 -2 11 -2 10 -2 11 -2 11 -2 10 -3 
11 -2 11 -2 11 -2 10 -2 11 -2 11 -2 11 -2 10 -2 
11 -2 11 -2 11 -2 10 -2 11 -2 11 0 10 -2 11 -3 
11 -2 11 -2 10 -2 11 -2 11 -2 11 -2 10 -2 11 -2 
11 -2 11 -2 10 -2 11 -2 11 -2 10 -2 11 -2 11 -3 
11 -2 10 -2 11 -4 11 -2 11 -2 10 -2 11 -2 11 -2 
11 -2 10 -2 11 -2 11 -2 10 -2 11 -3 11 -2 11 -2 
10 -2 11 -2 11 -2 11 -2 10 -2 11 -2 11 -2 11 -2 
10 -2 11 -2 11 -2 10 -2 11 -2 11 -3 11 -2 10 -4 
11 -2 11 -2 11 -2 10 -2 11 -2 11 -2 11 -2 10 -2 
11 -2 11 -2 10 -2 11 -2 11 -3 11 -2 10 -2 11 -2 
11 -2 11 -2 10 -2 11 -2 11 -2 11 -2 10 -2 11 -2 
11 -2 10 -2 11 -2 11 -3 11 -2 10 -4 11 -2 11 -2 
11 -2 10 -2 11 -2 11 -2 11 -2 10 -2 11 -2 11 -2 
10 -2 11 -2 11 -3 11 -2 10 -2 11 -2 11 -2 11 -2 
10 -2 11 -2 11 -4 3045 2464 300 MP stroke
11 -2 10 -2 11 -2 11 -2 10 -2 11 -3 11 -2 11 -2 
10 -2 11 -2 11 -2 11 -2 10 -2 11 -2 11 -2 11 -4 
10 -2 11 -2 11 -2 10 -2 11 -3 11 -2 11 -2 10 -2 
11 -2 11 -2 11 -2 10 -2 11 -2 11 -2 11 -2 10 -2 
11 -4 11 -2 10 -2 11 -3 11 -2 11 -2 10 -2 11 -2 
11 -2 11 -2 10 -2 11 -2 11 -2 11 -2 10 -2 11 -4 
11 -2 10 -3 11 -2 11 -2 11 -2 10 -2 11 -2 11 -2 
11 -2 10 -2 11 -2 11 -2 11 -2 10 -2 11 -4 11 -2 
10 -3 11 -2 11 -2 11 -2 10 -2 11 -2 11 -2 11 -2 
10 -2 11 -2 11 -2 11 -2 10 -4 11 -2 11 -3 10 -2 
11 -2 11 -2 11 -2 10 -2 11 -2 11 -2 11 -2 10 -2 
11 -2 11 -4 11 -2 10 -2 11 -2 11 -3 10 -2 11 -2 
11 -2 11 -2 10 -2 11 -2 11 -2 11 -4 10 -2 11 -2 
11 -2 11 -2 10 -2 11 -2 11 -3 10 -2 11 -2 11 -2 
11 -2 10 -2 11 -4 11 -2 11 -2 10 -2 11 -2 11 -2 
11 -2 10 -2 11 -3 11 -2 10 -2 11 -2 11 -4 11 -2 
10 -2 11 -2 11 -2 11 -2 10 -2 11 -2 11 -2 11 -2 
10 -2 11 -3 11 -4 10 -2 11 -2 11 -2 11 -2 10 -2 
11 -2 11 -2 11 -2 10 -2 11 -2 11 -4 11 -3 10 -2 
11 -2 11 -2 10 -2 11 -2 11 -2 11 -2 10 -2 11 -2 
11 -2 11 -4 10 -2 11 -2 11 -2 11 -3 10 -2 11 -2 
11 -2 10 -2 11 -2 11 -2 11 -4 10 -2 11 -2 11 -2 
11 -2 10 -2 11 -2 11 -2 11 -3 10 -2 11 -2 11 -4 
10 -2 11 -2 11 -2 11 -2 10 -2 11 -2 11 -2 11 -2 
10 -2 11 -2 11 -5 11 -2 10 -2 11 -2 11 -2 10 -2 
899 2908 201 MP stroke
DO
18 w
c8
11 -2 11 -2 11 -2 10 -2 11 -2 11 -2 11 0 10 -2 
11 -2 11 -2 11 -3 10 -2 11 -2 11 -2 11 -2 10 0 
11 -2 11 -2 10 -2 11 -2 11 -2 11 -2 10 0 11 -2 
11 -2 11 -2 10 -2 11 -2 11 -3 11 -2 10 0 11 -2 
11 -2 10 -2 11 -2 11 -2 11 -2 10 -2 11 0 11 -2 
11 -2 10 -2 11 -2 11 -2 11 -2 10 0 11 -3 11 -2 
10 -2 11 -2 11 -2 11 -2 10 -2 11 0 11 -2 11 -2 
10 -2 11 -2 11 -2 11 -2 10 -2 11 0 11 -2 10 -2 
11 -3 11 -2 11 -2 10 -2 11 0 11 -2 11 -2 10 -2 
11 -2 11 -2 11 -2 10 0 11 -2 11 -2 10 -2 11 -2 
11 -2 11 -2 10 0 11 -3 11 -2 11 -2 10 -2 11 -2 
11 -2 11 -2 10 0 11 -2 11 -2 10 -2 11 -2 11 -2 
11 -2 10 0 11 -2 11 -2 11 -3 10 -2 11 -2 11 -2 
11 0 10 -2 11 -2 11 -2 10 -2 11 -2 11 -2 11 0 
10 -2 11 -2 11 -2 11 -2 10 -2 11 -2 11 0 11 -3 
10 -2 11 -2 11 -2 10 -2 11 -2 11 0 11 -2 10 -2 
11 -2 11 -2 11 -2 10 -2 11 0 11 -2 11 -2 10 -2 
11 -3 11 -2 10 -2 11 0 11 -2 11 -2 10 -2 11 -2 
11 -2 11 -2 10 -2 11 0 11 -2 11 -2 10 -2 11 -2 
11 -2 10 -2 11 0 11 -3 11 -2 10 -2 11 -2 11 -2 
11 0 10 -2 11 -2 11 -2 11 -2 10 -2 11 -2 11 0 
10 -2 11 -2 11 -2 11 -2 10 -2 11 -3 11 0 11 -2 
10 -2 11 -2 11 -2 11 -2 10 0 11 -2 11 -2 10 -2 
11 -2 11 -2 11 -2 10 0 11 -2 11 -2 11 -2 10 -3 
11 -2 11 0 11 -2 10 -2 11 -2 11 -2 10 -2 11 -2 
11 0 11 -2 10 -2 11 -2 11 -2 11 -2 10 -2 11 0 
11 -2 11 -2 10 -3 11 -2 11 -2 10 0 11 -2 11 -2 
11 -2 10 -2 11 -2 11 0 11 -2 10 -2 11 -2 11 -2 
11 -2 10 0 11 -2 11 -2 10 -3 11 -2 11 -2 11 -2 
10 0 11 -2 11 -2 11 -2 10 -2 11 -2 11 0 11 -2 
10 -2 11 -2 11 -2 10 -2 11 0 11 -2 11 -2 10 -3 
11 -2 11 -2 11 0 10 -2 11 -2 11 -2 11 -2 10 -2 
11 0 11 -2 10 -2 11 -2 11 -2 11 0 10 -2 11 -2 
11 -2 11 -2 10 -3 11 0 11 -2 11 -2 10 -2 11 -2 
11 -2 10 0 11 -2 11 -2 11 -2 10 -2 11 -2 11 0 
11 -2 10 -2 11 -2 11 -2 11 0 10 -3 11 -2 11 -2 
10 -2 11 0 11 -2 11 -2 10 -2 11 -2 11 -2 11 0 
10 -2 11 -2 11 -2 3045 2757 300 MP stroke
11 -2 10 0 11 -2 11 -2 10 -2 11 -3 11 0 11 -2 
10 -2 11 -2 11 -2 11 -2 10 0 11 -2 11 -2 11 -2 
10 -2 11 0 11 -2 10 -2 11 -2 11 -2 11 -2 10 0 
11 -3 11 -2 11 -2 10 -2 11 0 11 -2 11 -2 10 -2 
11 0 11 -2 10 -2 11 -2 11 -2 11 0 10 -2 11 -2 
11 -2 11 -2 10 0 11 -2 11 -3 11 -2 10 -2 11 0 
11 -2 10 -2 11 -2 11 0 11 -2 10 -2 11 -2 11 0 
11 -2 10 -2 11 -2 11 -2 11 0 10 -2 11 -2 11 -2 
10 -3 11 0 11 -2 11 -2 10 -2 11 0 11 -2 11 -2 
10 -2 11 -2 11 0 11 -2 10 -2 11 -2 11 -2 10 0 
11 -2 11 -2 11 -2 10 0 11 -3 11 -2 11 -2 10 0 
11 -2 11 -2 11 -2 10 0 11 -2 11 -2 10 -2 11 0 
11 -2 11 -2 10 -2 11 0 11 -2 11 -2 10 0 11 -2 
11 -2 11 0 10 -3 11 -2 11 -2 10 0 11 -2 11 -2 
11 0 10 -2 11 -2 11 0 11 -2 10 -2 11 -2 11 -2 
11 0 10 -2 11 -2 11 0 10 -2 11 -2 11 0 11 -3 
10 -2 11 0 11 -2 11 -2 10 -2 11 0 11 -2 11 -2 
10 0 11 -2 11 -2 10 0 11 -2 11 -2 11 0 10 -2 
11 -2 11 0 11 -2 10 0 11 -2 11 -2 11 0 10 -3 
11 0 11 -2 10 0 11 -2 11 0 11 -2 10 0 11 -2 
11 0 11 -2 10 -2 11 0 11 -2 11 0 10 -2 11 0 
11 -2 10 0 11 -2 11 0 11 -2 10 0 11 -2 11 -2 
11 0 10 -2 11 0 11 -3 11 0 10 0 11 0 11 0 
10 0 11 0 11 0 11 0 10 0 11 0 11 0 11 0 
10 0 11 0 11 0 11 0 10 0 11 0 11 0 10 0 
899 3024 201 MP stroke
c9
11 -2 11 -2 11 -2 10 -2 11 -2 11 -2 11 -2 10 -2 
11 -2 11 -3 11 -2 10 -2 11 0 11 -2 11 -2 10 -2 
11 -2 11 -2 10 -2 11 -2 11 -2 11 -2 10 -2 11 -2 
11 -2 11 -2 10 -3 11 -2 11 -2 11 -2 10 -2 11 -2 
11 -2 10 -2 11 -2 11 -2 11 -2 10 0 11 -2 11 -2 
11 -2 10 -2 11 -3 11 -2 11 -2 10 -2 11 -2 11 -2 
10 -2 11 -2 11 -2 11 -2 10 -2 11 -2 11 -2 11 -2 
10 -2 11 -2 11 -3 11 -2 10 0 11 -2 11 -2 10 -2 
11 -2 11 -2 11 -2 10 -2 11 -2 11 -2 11 -2 10 -2 
11 -2 11 -2 11 -3 10 -2 11 -2 11 -2 10 -2 11 -2 
11 -2 11 -2 10 0 11 -2 11 -2 11 -2 10 -2 11 -2 
11 -2 11 -2 10 -2 11 -3 11 -2 10 -2 11 -2 11 -2 
11 -2 10 -2 11 -2 11 -2 11 -2 10 -2 11 -2 11 -2 
11 0 10 -2 11 -2 11 -2 10 -3 11 -2 11 -2 11 -2 
10 -2 11 -2 11 -2 11 -2 10 -2 11 -2 11 -2 11 -2 
10 -2 11 -2 11 -2 10 -3 11 0 11 -4 11 0 10 -2 
11 -2 11 -2 11 -2 10 -2 11 -2 11 -2 11 -2 10 -2 
11 -2 11 -2 10 -2 11 -2 11 -3 11 -2 10 -2 11 -2 
11 -2 11 0 10 -2 11 -2 11 -2 11 -2 10 -2 11 -2 
11 -2 10 -2 11 -2 11 -2 11 -3 10 -2 11 -2 11 -2 
11 -2 10 -2 11 -2 11 -2 11 -2 10 -2 11 0 11 -2 
10 -2 11 -2 11 -2 11 -2 10 -2 11 -3 11 -2 11 -2 
10 -2 11 -2 11 -2 11 -2 10 -2 11 -2 11 -2 10 -2 
11 -2 11 -2 11 0 10 -2 11 -2 11 -2 11 -3 10 -2 
11 -2 11 -2 11 -2 10 -2 11 -2 11 -2 10 -2 11 -2 
11 -2 11 -2 10 -2 11 -2 11 -2 11 0 10 -3 11 -2 
11 -2 11 -2 10 -2 11 -2 11 -2 10 -2 11 -2 11 -2 
11 -2 10 -2 11 -2 11 -2 11 -2 10 -2 11 -3 11 0 
11 -2 10 -2 11 -2 11 -2 10 -2 11 -2 11 -2 11 -2 
10 -2 11 -2 11 -2 11 -2 10 -2 11 -2 11 -3 11 -2 
10 -2 11 0 11 -2 10 -2 11 -2 11 -2 11 -2 10 -2 
11 -2 11 -2 11 -2 10 -2 11 -2 11 -2 11 -2 10 -3 
11 -2 11 -2 10 0 11 -2 11 -2 11 -2 10 -2 11 -2 
11 -2 11 -2 10 -2 11 -2 11 -2 11 -2 10 -2 11 -2 
11 -3 10 -2 11 -2 11 -2 11 0 10 -2 11 -2 11 -2 
11 -2 10 -2 11 -2 11 -2 11 -2 10 -2 11 -2 11 -2 
10 -3 11 -2 11 -2 11 -2 10 0 11 -2 11 -2 11 -2 
10 -2 11 -2 11 -2 3045 2592 300 MP stroke
11 -2 10 -2 11 -2 11 -2 10 -2 11 -2 11 -3 11 -2 
10 0 11 -2 11 -2 11 -2 10 -2 11 -2 11 -2 11 -2 
10 -2 11 -2 11 -2 10 -2 11 -2 11 -2 11 -3 10 0 
11 -2 11 -2 11 -2 10 -2 11 -2 11 -2 11 -2 10 -2 
11 -2 11 -2 10 -2 11 -2 11 -2 11 -2 10 0 11 -2 
11 -3 11 -2 10 -2 11 -2 11 -2 11 -2 10 -2 11 -2 
11 -2 10 -2 11 -2 11 -2 11 0 10 -2 11 -2 11 -2 
11 -2 10 -3 11 -2 11 -2 11 -2 10 -2 11 -2 11 -2 
10 0 11 -2 11 -2 11 -2 10 -2 11 -2 11 -2 11 -2 
10 -2 11 -3 11 -2 11 -2 10 -2 11 0 11 -2 10 -2 
11 -2 11 -2 11 -2 10 -2 11 -2 11 -2 11 -2 10 -2 
11 0 11 -2 11 -2 10 -3 11 -2 11 -2 10 -2 11 -2 
11 -2 11 -2 10 -2 11 -2 11 -2 11 0 10 -2 11 -2 
11 -2 11 -2 10 -2 11 -3 11 -2 10 -2 11 -2 11 -2 
11 -2 10 0 11 -2 11 -2 11 -2 10 -2 11 -2 11 -2 
11 -2 10 -2 11 -2 11 0 10 -2 11 -3 11 -2 11 -2 
10 -2 11 -2 11 -2 11 -2 10 -2 11 0 11 -2 11 -2 
10 -2 11 -2 11 -2 10 -2 11 -2 11 -2 11 0 10 -3 
11 -2 11 -2 11 -2 10 -2 11 -2 11 -2 11 -2 10 -2 
11 0 11 -2 10 -2 11 -2 11 -2 11 -2 10 -2 11 -3 
11 0 11 -2 10 -2 11 -2 11 -2 11 -2 10 -2 11 -2 
11 -2 10 0 11 -2 11 -2 11 -2 10 -2 11 -2 11 0 
11 -2 10 -2 11 -3 11 -2 11 -2 10 -2 11 0 11 -2 
10 -2 11 -2 11 -2 11 -2 10 0 11 -2 11 -2 11 -2 
10 -2 11 -2 11 -2 11 0 10 -3 11 -2 11 -2 10 -2 
899 2966 201 MP stroke
gr

18 w
c9
DO
0 sg
3172 1899 mt 
(Policy Function) s
3234 3312 mt 
(Assets today) s
 882 3067 mt 
( ) s
6239 2036 mt 
( ) s
SO
6 w
1 sg
0 1029 5356 0 0 -1029 899 4577 4 MP
PP
-5356 0 0 1029 5356 0 0 -1029 899 4577 5 MP stroke
4 w
DO
SO
6 w
0 sg
 899 4577 mt 6255 4577 L
 899 3548 mt 6255 3548 L
 899 4577 mt  899 3548 L
6255 4577 mt 6255 3548 L
 899 4577 mt 6255 4577 L
 899 4577 mt  899 3548 L
 899 4577 mt  899 4523 L
 899 3548 mt  899 3601 L
 866 4722 mt 
(0) s
1434 4577 mt 1434 4523 L
1434 3548 mt 1434 3601 L
1401 4722 mt 
(1) s
1970 4577 mt 1970 4523 L
1970 3548 mt 1970 3601 L
1937 4722 mt 
(2) s
2505 4577 mt 2505 4523 L
2505 3548 mt 2505 3601 L
2472 4722 mt 
(3) s
3041 4577 mt 3041 4523 L
3041 3548 mt 3041 3601 L
3008 4722 mt 
(4) s
3577 4577 mt 3577 4523 L
3577 3548 mt 3577 3601 L
3544 4722 mt 
(5) s
4112 4577 mt 4112 4523 L
4112 3548 mt 4112 3601 L
4079 4722 mt 
(6) s
4648 4577 mt 4648 4523 L
4648 3548 mt 4648 3601 L
4615 4722 mt 
(7) s
5183 4577 mt 5183 4523 L
5183 3548 mt 5183 3601 L
5150 4722 mt 
(8) s
5719 4577 mt 5719 4523 L
5719 3548 mt 5719 3601 L
5686 4722 mt 
(9) s
6255 4577 mt 6255 4523 L
6255 3548 mt 6255 3601 L
6189 4722 mt 
(10) s
 899 4577 mt  952 4577 L
6255 4577 mt 6201 4577 L
 798 4621 mt 
(0) s
 899 4062 mt  952 4062 L
6255 4062 mt 6201 4062 L
 798 4106 mt 
(5) s
 899 3548 mt  952 3548 L
6255 3548 mt 6201 3548 L
 731 3592 mt 
(10) s
 899 4577 mt 6255 4577 L
 899 3548 mt 6255 3548 L
 899 4577 mt  899 3548 L
6255 4577 mt 6255 3548 L
gs 899 3548 5357 1030 rc
c8
11 -1 11 -2 11 0 10 -1 11 -2 11 -1 11 -2 10 -1 
11 0 11 -2 11 -1 10 0 11 -3 11 0 11 -3 10 0 
11 0 11 -3 10 0 11 -1 11 -2 11 -1 10 -2 11 -1 
11 0 11 -2 10 -1 11 -2 11 -1 11 0 10 -3 11 0 
11 -3 10 0 11 0 11 -3 11 0 10 -1 11 -2 11 -1 
11 0 10 -2 11 -1 11 0 11 -3 10 0 11 -3 11 0 
10 0 11 -3 11 0 11 -1 10 0 11 -1 11 0 11 -2 
10 -1 11 0 11 -1 11 0 10 0 11 -3 11 0 10 -1 
11 0 11 -1 11 0 10 -3 11 0 11 0 11 -1 10 0 
11 -1 11 -2 11 0 10 -1 11 0 11 -1 10 -2 11 -1 
11 0 11 0 10 -1 11 0 11 -3 11 0 10 -1 11 0 
11 0 11 -3 10 0 11 -1 11 0 10 0 11 -1 11 -2 
11 -1 10 0 11 -1 11 0 11 -2 10 -1 11 0 11 -1 
11 0 10 -1 11 -2 11 0 10 -1 11 0 11 -1 11 -2 
10 -1 11 0 11 0 11 -1 10 0 11 -3 11 0 11 -1 
10 0 11 0 11 -3 10 0 11 -1 11 0 11 0 10 -1 
11 -2 11 -1 11 0 10 -1 11 0 11 -2 11 -1 10 0 
11 -1 11 0 10 -1 11 0 11 -2 11 -1 10 0 11 -1 
11 0 11 0 10 -1 11 0 11 -1 11 -2 10 -1 11 0 
11 0 10 -1 11 0 11 -1 11 0 10 0 11 -1 11 -2 
11 -1 10 0 11 -1 11 0 11 0 10 -1 11 0 11 -1 
10 0 11 -1 11 -2 11 0 10 -1 11 0 11 -1 11 0 
10 0 11 -1 11 0 11 -1 10 0 11 -3 11 0 10 0 
11 -1 11 0 11 -1 10 0 11 0 11 -1 11 0 10 -1 
11 0 11 -3 11 0 10 0 11 -1 11 0 10 -1 11 0 
11 0 11 -1 10 0 11 -3 11 0 11 -1 10 0 11 0 
11 -1 11 0 10 -1 11 0 11 0 10 -3 11 0 11 -1 
11 0 10 -1 11 0 11 0 11 -1 10 0 11 -1 11 0 
11 -1 10 -2 11 0 11 -1 10 0 11 -1 11 0 11 0 
10 -1 11 0 11 -1 11 0 10 -1 11 0 11 0 11 -1 
10 0 11 -3 11 0 10 0 11 -1 11 0 11 -1 10 0 
11 -1 11 0 11 0 10 -1 11 0 11 -1 11 0 10 0 
11 -1 11 0 10 -1 11 0 11 0 11 -3 10 0 11 -1 
11 0 11 -1 10 0 11 0 11 -1 11 0 10 -1 11 0 
11 0 10 -1 11 0 11 -1 11 0 10 -1 11 0 11 0 
11 -1 10 0 11 -1 11 -2 11 0 10 -1 11 0 11 -1 
10 0 11 -1 11 0 11 0 10 -1 11 0 11 -1 11 0 
10 0 11 -1 11 0 3045 4323 300 MP stroke
11 -1 10 0 11 -1 11 0 10 0 11 -1 11 0 11 -1 
10 -2 11 0 11 -1 11 0 10 -1 11 0 11 -1 11 0 
10 0 11 -1 11 0 10 -1 11 0 11 0 11 -1 10 0 
11 -1 11 0 11 0 10 -1 11 0 11 -1 11 0 10 -1 
11 0 11 0 10 -1 11 0 11 -1 11 0 10 0 11 -1 
11 0 11 -1 10 0 11 -3 11 0 11 0 10 -1 11 0 
11 -1 10 0 11 0 11 -1 11 0 10 -1 11 0 11 0 
11 -1 10 0 11 -1 11 0 11 -1 10 0 11 0 11 -1 
10 0 11 -1 11 0 11 0 10 -1 11 0 11 -1 11 0 
10 -1 11 0 11 0 11 -1 10 0 11 -1 11 0 10 0 
11 -1 11 0 11 -1 10 0 11 0 11 -1 11 0 10 -1 
11 0 11 -1 11 0 10 0 11 -1 11 0 10 -1 11 0 
11 0 11 -1 10 0 11 -1 11 0 11 0 10 -1 11 0 
11 -1 11 0 10 -1 11 0 11 0 10 -1 11 0 11 -1 
11 0 10 0 11 -1 11 0 11 -1 10 0 11 0 11 -1 
11 0 10 -1 11 0 11 -1 10 0 11 0 11 -1 11 0 
10 -1 11 0 11 -2 11 -1 10 0 11 1 11 0 11 0 
10 -1 11 0 11 -1 10 0 11 -1 11 0 11 -2 10 -1 
11 0 11 1 11 0 10 0 11 -1 11 0 11 -1 10 0 
11 0 11 -1 10 0 11 -1 11 0 11 -1 10 0 11 0 
11 -1 11 0 10 -1 11 0 11 0 11 -1 10 0 11 -1 
11 0 10 -1 11 0 11 0 11 -1 10 0 11 -1 11 0 
11 0 10 -1 11 0 11 -1 11 0 10 0 11 -1 11 0 
10 -1 11 0 11 -1 11 0 10 0 11 -1 11 0 11 -1 
10 0 11 0 11 -1 11 0 10 -1 11 0 11 0 10 -1 
899 4410 201 MP stroke
c9
11 -2 11 -3 11 -2 10 -3 11 -2 11 -3 11 -2 10 -3 
11 -2 11 -3 11 -2 10 -3 11 -2 11 -3 11 -2 10 -2 
11 -3 11 -2 10 -3 11 -2 11 -3 11 -2 10 -3 11 -2 
11 -3 11 -2 10 -3 11 -2 11 -3 11 -2 10 -3 11 -2 
11 -3 10 -2 11 -3 11 -2 11 -2 10 -3 11 -2 11 -3 
11 -2 10 -3 11 -2 11 -3 11 -2 10 -3 11 -2 11 -3 
10 -2 11 -3 11 -2 11 -3 10 -2 11 -3 11 -2 11 -2 
10 -3 11 -2 11 -3 11 -2 10 -1 11 0 11 -1 10 -2 
11 0 11 -1 11 0 10 -1 11 0 11 -3 11 0 10 0 
11 -1 11 0 11 -1 10 -2 11 -1 11 0 10 0 11 -1 
11 -2 11 -1 10 0 11 -1 11 0 11 0 10 -3 11 0 
11 -1 11 0 10 0 11 -3 11 0 10 -1 11 0 11 -1 
11 0 10 -2 11 -1 11 0 11 -1 10 0 11 -3 11 0 
11 0 10 -1 11 0 11 -1 10 -2 11 -1 11 0 11 0 
10 -1 11 -2 11 -1 11 0 10 -1 11 0 11 -2 11 -1 
10 0 11 -1 11 0 10 0 11 -3 11 0 11 -1 10 0 
11 -1 11 0 11 -2 10 -1 11 0 11 -1 11 0 10 -1 
11 0 11 0 10 -1 11 0 11 -1 11 0 10 0 11 -1 
11 0 11 -1 10 0 11 0 11 -1 11 0 10 -1 11 0 
11 -1 10 0 11 0 11 -1 11 0 10 -1 11 0 11 0 
11 -1 10 -2 11 -1 11 0 11 -1 10 0 11 0 11 -1 
10 0 11 -1 11 0 11 0 10 -1 11 0 11 -1 11 0 
10 0 11 -1 11 0 11 -1 10 0 11 -1 11 0 10 0 
11 -1 11 0 11 -1 10 0 11 0 11 -1 11 0 10 -1 
11 0 11 -1 11 0 10 0 11 -1 11 -2 10 -1 11 0 
11 0 11 -1 10 0 11 -1 11 0 11 -1 10 0 11 0 
11 -1 11 0 10 -1 11 0 11 0 10 -1 11 0 11 -1 
11 0 10 0 11 1 11 0 11 -1 10 0 11 0 11 -1 
11 0 10 -1 11 0 11 -1 10 0 11 0 11 -1 11 0 
10 -1 11 0 11 0 11 -1 10 0 11 -1 11 0 11 0 
10 -1 11 0 11 -1 10 0 11 -1 11 0 11 0 10 1 
11 0 11 -1 11 0 10 0 11 -1 11 0 11 -1 10 0 
11 0 11 -1 10 0 11 -1 11 0 11 0 10 -1 11 0 
11 -1 11 0 10 -1 11 0 11 0 11 -1 10 0 11 -1 
11 0 10 0 11 -1 11 0 11 -1 10 2 11 0 11 -1 
11 0 10 -1 11 0 11 -1 11 0 10 0 11 -1 11 0 
10 -1 11 0 11 0 11 -1 10 0 11 -1 11 0 11 0 
10 -1 11 0 11 1 3045 4435 300 MP stroke
11 0 10 0 11 -1 11 0 10 -1 11 0 11 -1 11 0 
10 0 11 -1 11 0 11 -1 10 0 11 0 11 -1 11 2 
10 -1 11 0 11 0 10 -1 11 0 11 -1 11 0 10 0 
11 -1 11 0 11 -1 10 0 11 -1 11 0 11 0 10 -1 
11 2 11 -1 10 0 11 0 11 -1 11 0 10 -1 11 0 
11 0 11 -1 10 0 11 -1 11 0 11 0 10 -1 11 2 
11 -1 10 0 11 0 11 -1 11 0 10 -1 11 0 11 -1 
11 0 10 0 11 -1 11 0 11 -1 10 0 11 2 11 -1 
10 0 11 -1 11 0 11 0 10 -1 11 0 11 -1 11 0 
10 0 11 -1 11 0 11 -1 10 2 11 0 11 -1 10 0 
11 -1 11 0 11 -1 10 0 11 0 11 -1 11 0 10 -1 
11 0 11 2 11 -1 10 0 11 -1 11 0 10 0 11 -1 
11 0 11 -1 10 0 11 0 11 -1 11 2 10 -1 11 0 
11 0 11 -1 10 0 11 -1 11 0 10 -1 11 0 11 0 
11 -1 10 0 11 1 11 0 11 0 10 -1 11 0 11 -1 
11 0 10 0 11 -1 11 0 10 -1 11 0 11 2 11 -1 
10 0 11 -1 11 0 11 -1 10 0 11 0 11 -1 11 0 
10 -1 11 0 11 2 10 -1 11 0 11 -1 11 0 10 0 
11 -1 11 0 11 -1 10 0 11 0 11 1 11 0 10 -1 
11 0 11 0 10 -1 11 0 11 -1 11 0 10 -1 11 0 
11 0 11 1 10 0 11 -1 11 0 11 0 10 -1 11 0 
11 -1 10 0 11 0 11 -1 11 2 10 -1 11 0 11 0 
11 -1 10 0 11 -1 11 0 11 0 10 -1 11 0 11 1 
10 0 11 0 11 -1 11 0 10 -1 11 0 11 -1 11 0 
10 0 11 -1 11 2 11 -1 10 0 11 0 11 -1 10 0 
899 4486 201 MP stroke
DO
18 w
c8
11 0 11 0 11 0 10 -1 11 0 11 0 11 -2 10 0 
11 0 11 0 11 0 10 0 11 -1 11 0 11 0 10 -2 
11 0 11 0 10 0 11 0 11 0 11 0 10 -3 11 0 
11 0 11 0 10 0 11 0 11 0 11 0 10 -3 11 0 
11 0 10 0 11 0 11 0 11 0 10 0 11 -2 11 -1 
11 0 10 0 11 0 11 0 11 0 10 -2 11 0 11 0 
10 -1 11 0 11 0 11 0 10 0 11 -2 11 0 11 0 
10 0 11 -1 11 0 11 0 10 0 11 -2 11 0 10 0 
11 0 11 0 11 -1 10 0 11 -2 11 0 11 0 10 0 
11 0 11 0 11 0 10 -3 11 0 11 0 10 0 11 0 
11 0 11 0 10 -2 11 0 11 -1 11 0 10 0 11 0 
11 0 11 0 10 -2 11 0 11 0 10 -1 11 0 11 0 
11 0 10 -2 11 0 11 0 11 0 10 0 11 -1 11 0 
11 -2 10 0 11 0 11 0 10 0 11 0 11 0 11 -3 
10 0 11 0 11 0 11 0 10 0 11 0 11 -2 11 0 
10 -1 11 0 11 0 10 0 11 0 11 -2 11 0 10 0 
11 0 11 -1 11 0 10 0 11 -2 11 0 11 0 10 0 
11 0 11 0 10 -1 11 -2 11 0 11 0 10 0 11 0 
11 0 11 0 10 0 11 -3 11 0 11 0 10 0 11 0 
11 0 10 0 11 -2 11 0 11 -1 10 0 11 0 11 0 
11 -2 10 0 11 0 11 0 11 0 10 -1 11 0 11 -2 
10 0 11 0 11 0 11 0 10 0 11 0 11 -3 11 0 
10 0 11 0 11 0 11 0 10 -2 11 0 11 -1 10 0 
11 0 11 0 11 0 10 -2 11 0 11 0 11 0 10 -1 
11 0 11 -2 11 0 10 0 11 0 11 0 10 0 11 0 
11 -3 11 0 10 0 11 0 11 0 11 0 10 0 11 -2 
11 0 11 -1 10 0 11 0 11 0 10 -2 11 0 11 0 
11 0 10 0 11 -1 11 -2 11 0 10 0 11 0 11 0 
11 0 10 -2 11 0 11 -1 10 0 11 0 11 0 11 0 
10 -2 11 0 11 0 11 0 10 -1 11 0 11 -2 11 0 
10 0 11 0 11 0 10 0 11 -3 11 0 11 0 10 0 
11 0 11 0 11 -2 10 0 11 0 11 -1 11 0 10 0 
11 -2 11 0 10 0 11 0 11 0 11 -2 10 -1 11 0 
11 0 11 0 10 0 11 -2 11 0 11 0 10 0 11 -1 
11 0 10 -2 11 0 11 0 11 0 10 0 11 0 11 -3 
11 0 10 0 11 0 11 0 11 -2 10 0 11 0 11 0 
10 -1 11 -2 11 0 11 0 10 0 11 0 11 0 11 -2 
10 0 11 -1 11 0 3045 4204 300 MP stroke
11 0 10 -2 11 0 11 0 10 0 11 0 11 -3 11 0 
10 0 11 0 11 0 11 0 10 -2 11 0 11 0 11 -1 
10 0 11 -2 11 0 10 0 11 0 11 0 11 0 10 -2 
11 -1 11 0 11 0 10 0 11 -2 11 0 11 0 10 0 
11 -3 11 0 10 0 11 0 11 0 11 -2 10 0 11 0 
11 0 11 0 10 -3 11 0 11 0 11 0 10 0 11 -2 
11 0 10 0 11 -1 11 -2 11 0 10 0 11 0 11 -2 
11 0 10 0 11 0 11 -1 11 -2 10 0 11 0 11 0 
10 0 11 -2 11 0 11 -1 10 0 11 -2 11 0 11 0 
10 0 11 0 11 -2 11 0 10 -1 11 0 11 0 10 -2 
11 0 11 0 11 0 10 -2 11 -1 11 0 11 0 10 -2 
11 0 11 0 11 0 10 -2 11 0 11 -1 10 0 11 -2 
11 0 11 0 10 0 11 -2 11 0 11 -1 10 -2 11 0 
11 0 11 -2 10 0 11 0 11 0 10 -3 11 0 11 0 
11 -2 10 0 11 0 11 -2 11 0 10 -1 11 0 11 0 
11 -2 10 0 11 0 11 -2 10 0 11 0 11 -3 11 0 
10 0 11 -2 11 0 11 0 10 0 11 -2 11 -1 11 0 
10 -2 11 0 11 0 10 -2 11 0 11 0 11 -3 10 0 
11 0 11 -2 11 0 10 -2 11 0 11 0 11 -3 10 0 
11 -2 11 0 10 -2 11 0 11 -2 11 -1 10 -2 11 0 
11 -2 11 0 10 0 11 -2 11 0 11 -3 10 0 11 -2 
11 0 10 -2 11 0 11 -2 11 0 10 -3 11 0 11 0 
11 -2 10 0 11 -2 11 0 11 -3 10 -2 11 -2 11 -2 
10 -2 11 -2 11 -3 11 -2 10 -2 11 -2 11 -2 11 -2 
10 -3 11 -2 11 -2 11 -2 10 -2 11 -2 11 -3 10 -2 
899 4371 201 MP stroke
c9
11 0 11 0 11 0 10 0 11 0 11 0 11 -1 10 0 
11 0 11 0 11 0 10 0 11 -2 11 0 11 0 10 -1 
11 0 11 0 10 0 11 0 11 0 11 0 10 0 11 0 
11 -1 11 0 10 0 11 0 11 0 11 0 10 0 11 0 
11 0 10 0 11 -1 11 0 11 0 10 -2 11 0 11 0 
11 0 10 0 11 0 11 -1 11 0 10 0 11 0 11 0 
10 0 11 0 11 0 11 0 10 0 11 -1 11 0 11 0 
10 0 11 0 11 0 11 0 10 -2 11 0 11 -1 10 0 
11 0 11 0 11 0 10 0 11 0 11 0 11 0 10 0 
11 -1 11 0 11 0 10 0 11 0 11 0 10 0 11 0 
11 0 11 -1 10 -2 11 0 11 0 11 0 10 0 11 0 
11 0 11 0 10 -1 11 0 11 0 10 0 11 0 11 0 
11 0 10 0 11 0 11 0 11 -1 10 0 11 0 11 0 
11 -2 10 0 11 0 11 0 10 0 11 -1 11 0 11 0 
10 0 11 0 11 0 11 0 10 0 11 0 11 0 11 -1 
10 0 11 0 11 0 10 0 11 -2 11 2 11 -2 10 0 
11 -1 11 0 11 0 10 0 11 0 11 0 11 0 10 0 
11 0 11 0 10 -1 11 0 11 0 11 0 10 0 11 0 
11 0 11 -2 10 0 11 -1 11 0 11 0 10 0 11 0 
11 0 10 0 11 0 11 0 11 0 10 -1 11 0 11 0 
11 0 10 0 11 0 11 0 11 0 10 0 11 -3 11 0 
10 0 11 0 11 0 11 0 10 0 11 0 11 0 11 -1 
10 0 11 0 11 0 11 0 10 0 11 0 11 0 10 0 
11 0 11 -1 11 -2 10 0 11 0 11 0 11 0 10 0 
11 0 11 0 11 -1 10 0 11 0 11 0 10 0 11 0 
11 0 11 0 10 0 11 0 11 -1 11 -2 10 0 11 0 
11 0 11 0 10 0 11 0 11 0 10 -1 11 0 11 0 
11 0 10 0 11 0 11 0 11 0 10 0 11 0 11 -3 
11 0 10 0 11 0 11 0 10 0 11 0 11 0 11 0 
10 -1 11 0 11 0 11 0 10 0 11 0 11 0 11 0 
10 0 11 -3 11 0 10 0 11 0 11 0 11 0 10 0 
11 0 11 0 11 -1 10 0 11 0 11 0 11 0 10 0 
11 0 11 0 10 -2 11 0 11 -1 11 0 10 0 11 0 
11 0 11 0 10 0 11 0 11 0 11 -1 10 0 11 0 
11 0 10 0 11 0 11 0 11 -2 10 0 11 -1 11 0 
11 0 10 0 11 0 11 0 11 0 10 0 11 0 11 0 
10 -1 11 0 11 0 11 0 10 -2 11 0 11 0 11 0 
10 0 11 -1 11 0 3045 4369 300 MP stroke
11 0 10 0 11 0 11 0 10 0 11 0 11 0 11 0 
10 -3 11 0 11 0 11 0 10 0 11 0 11 0 11 0 
10 0 11 -1 11 0 10 0 11 0 11 0 11 0 10 -2 
11 0 11 0 11 -1 10 0 11 0 11 0 11 0 10 0 
11 0 11 0 10 0 11 0 11 -1 11 0 10 -2 11 0 
11 0 11 0 10 0 11 0 11 0 11 -1 10 0 11 0 
11 0 10 0 11 0 11 0 11 -2 10 0 11 -1 11 0 
11 0 10 0 11 0 11 0 11 0 10 0 11 0 11 0 
10 -3 11 0 11 0 11 0 10 0 11 0 11 0 11 0 
10 0 11 -1 11 0 11 0 10 0 11 -2 11 0 10 0 
11 0 11 0 11 -1 10 0 11 0 11 0 11 0 10 0 
11 -2 11 0 11 0 10 -1 11 0 11 0 10 0 11 0 
11 0 11 0 10 0 11 0 11 0 11 -3 10 0 11 0 
11 0 11 0 10 0 11 0 11 0 10 0 11 -1 11 0 
11 0 10 -2 11 0 11 0 11 0 10 0 11 0 11 -1 
11 0 10 0 11 0 11 -2 10 0 11 0 11 0 11 0 
10 -1 11 0 11 0 11 0 10 0 11 -2 11 0 11 0 
10 0 11 -1 11 0 10 0 11 0 11 0 11 -2 10 0 
11 0 11 0 11 -1 10 0 11 0 11 0 11 0 10 0 
11 -2 11 0 10 0 11 -1 11 0 11 0 10 0 11 0 
11 -2 11 0 10 0 11 0 11 -1 11 0 10 0 11 0 
11 0 10 -2 11 0 11 0 11 0 10 -1 11 0 11 -2 
11 0 10 0 11 0 11 0 11 0 10 0 11 -3 11 0 
10 0 11 0 11 0 11 0 10 -2 11 0 11 0 11 -1 
10 0 11 0 11 0 11 -2 10 0 11 0 11 0 10 0 
899 4428 201 MP stroke
gr

18 w
c9
DO
0 sg
2999 3453 mt 
(Optimal Consumption) s
3234 4865 mt 
(Assets today) s
 882 4620 mt 
( ) s
6239 3590 mt 
( ) s
SO
6 w
1 sg
0 778 1262 0 0 -778 4933 1279 4 MP
PP
-1262 0 0 778 1262 0 0 -778 4933 1279 5 MP stroke
4 w
DO
SO
6 w
0 sg
4933 1279 mt 6195 1279 L
4933  501 mt 6195  501 L
4933 1279 mt 4933  501 L
6195 1279 mt 6195  501 L
4933 1279 mt 6195 1279 L
4933 1279 mt 4933  501 L
4933 1279 mt 6195 1279 L
4933  501 mt 6195  501 L
4933 1279 mt 4933  501 L
6195 1279 mt 6195  501 L
4995  655 mt 
(v\(a,z) s
%%IncludeResource: font Helvetica
/Helvetica /ISOLatin1Encoding 96 FMSR

5255  595 mt 
(h) s
%%IncludeResource: font Helvetica
/Helvetica /ISOLatin1Encoding 120 FMSR

5308  655 mt 
(\), r=0.2) s
gs 4933 501 1263 779 rc
c8
47 0 4942 600 2 MP stroke
gr

c8
0 sg
4995  849 mt 
(v\(a,z) s
%%IncludeResource: font Helvetica
/Helvetica /ISOLatin1Encoding 96 FMSR

5255  789 mt 
(l) s
%%IncludeResource: font Helvetica
/Helvetica /ISOLatin1Encoding 120 FMSR

5276  849 mt 
(\), r=0.2) s
gs 4933 501 1263 779 rc
c9
47 0 4942 793 2 MP stroke
gr

c9
0 sg
4995 1042 mt 
(v\(a,z) s
%%IncludeResource: font Helvetica
/Helvetica /ISOLatin1Encoding 96 FMSR

5255  982 mt 
(h) s
%%IncludeResource: font Helvetica
/Helvetica /ISOLatin1Encoding 120 FMSR

5308 1042 mt 
(\), r=0.05) s
gs 4933 501 1263 779 rc
DO
18 w
c8
47 0 4942 986 2 MP stroke
SO
gr

18 w
c8
0 sg
4995 1236 mt 
(v\(a,z) s
%%IncludeResource: font Helvetica
/Helvetica /ISOLatin1Encoding 96 FMSR

5255 1176 mt 
(l) s
%%IncludeResource: font Helvetica
/Helvetica /ISOLatin1Encoding 120 FMSR

5276 1236 mt 
(\), r=0.05) s
gs 4933 501 1263 779 rc
DO
c9
47 0 4942 1179 2 MP stroke
SO
6 w
gr

6 w
c9
1 sg
0 778 1282 0 0 -778 4914 2832 4 MP
PP
-1282 0 0 778 1282 0 0 -778 4914 2832 5 MP stroke
4 w
DO
SO
6 w
0 sg
4914 2832 mt 6196 2832 L
4914 2054 mt 6196 2054 L
4914 2832 mt 4914 2054 L
6196 2832 mt 6196 2054 L
4914 2832 mt 6196 2832 L
4914 2832 mt 4914 2054 L
4914 2832 mt 6196 2832 L
4914 2054 mt 6196 2054 L
4914 2832 mt 4914 2054 L
6196 2832 mt 6196 2054 L
4975 2208 mt 
(A\(a,z) s
%%IncludeResource: font Helvetica
/Helvetica /ISOLatin1Encoding 96 FMSR

5255 2148 mt 
(h) s
%%IncludeResource: font Helvetica
/Helvetica /ISOLatin1Encoding 120 FMSR

5308 2208 mt 
(\), r=0.2) s
gs 4914 2054 1283 779 rc
c8
47 0 4923 2153 2 MP stroke
gr

c8
0 sg
4975 2402 mt 
(A\(a,z) s
%%IncludeResource: font Helvetica
/Helvetica /ISOLatin1Encoding 96 FMSR

5255 2342 mt 
(l) s
%%IncludeResource: font Helvetica
/Helvetica /ISOLatin1Encoding 120 FMSR

5276 2402 mt 
(\), r=0.2) s
gs 4914 2054 1283 779 rc
c9
47 0 4923 2346 2 MP stroke
gr

c9
0 sg
4975 2595 mt 
(A\(a,z) s
%%IncludeResource: font Helvetica
/Helvetica /ISOLatin1Encoding 96 FMSR

5255 2535 mt 
(h) s
%%IncludeResource: font Helvetica
/Helvetica /ISOLatin1Encoding 120 FMSR

5308 2595 mt 
(\), r=0.05) s
gs 4914 2054 1283 779 rc
DO
18 w
c8
47 0 4923 2539 2 MP stroke
SO
gr

18 w
c8
0 sg
4975 2789 mt 
(A\(a,z) s
%%IncludeResource: font Helvetica
/Helvetica /ISOLatin1Encoding 96 FMSR

5255 2729 mt 
(l) s
%%IncludeResource: font Helvetica
/Helvetica /ISOLatin1Encoding 120 FMSR

5276 2789 mt 
(\), r=0.05) s
gs 4914 2054 1283 779 rc
DO
c9
47 0 4923 2732 2 MP stroke
SO
6 w
gr

6 w
c9
1 sg
0 778 1288 0 0 -778 4907 4386 4 MP
PP
-1288 0 0 778 1288 0 0 -778 4907 4386 5 MP stroke
4 w
DO
SO
6 w
0 sg
4907 4386 mt 6195 4386 L
4907 3608 mt 6195 3608 L
4907 4386 mt 4907 3608 L
6195 4386 mt 6195 3608 L
4907 4386 mt 6195 4386 L
4907 4386 mt 4907 3608 L
4907 4386 mt 6195 4386 L
4907 3608 mt 6195 3608 L
4907 4386 mt 4907 3608 L
6195 4386 mt 6195 3608 L
4968 3762 mt 
(C\(a,z) s
%%IncludeResource: font Helvetica
/Helvetica /ISOLatin1Encoding 96 FMSR

5254 3702 mt 
(h) s
%%IncludeResource: font Helvetica
/Helvetica /ISOLatin1Encoding 120 FMSR

5307 3762 mt 
(\), r=0.2) s
gs 4907 3608 1289 779 rc
c8
47 0 4916 3707 2 MP stroke
gr

c8
0 sg
4968 3956 mt 
(C\(a,z) s
%%IncludeResource: font Helvetica
/Helvetica /ISOLatin1Encoding 96 FMSR

5254 3896 mt 
(l) s
%%IncludeResource: font Helvetica
/Helvetica /ISOLatin1Encoding 120 FMSR

5275 3956 mt 
(\), r=0.2) s
gs 4907 3608 1289 779 rc
c9
47 0 4916 3900 2 MP stroke
gr

c9
0 sg
4968 4149 mt 
(C\(a,z) s
%%IncludeResource: font Helvetica
/Helvetica /ISOLatin1Encoding 96 FMSR

5254 4089 mt 
(h) s
%%IncludeResource: font Helvetica
/Helvetica /ISOLatin1Encoding 120 FMSR

5307 4149 mt 
(\), r=0.05) s
gs 4907 3608 1289 779 rc
DO
18 w
c8
47 0 4916 4093 2 MP stroke
SO
gr

18 w
c8
0 sg
4968 4343 mt 
(C\(a,z) s
%%IncludeResource: font Helvetica
/Helvetica /ISOLatin1Encoding 96 FMSR

5254 4283 mt 
(l) s
%%IncludeResource: font Helvetica
/Helvetica /ISOLatin1Encoding 120 FMSR

5275 4343 mt 
(\), r=0.05) s
gs 4907 3608 1289 779 rc
DO
c9
47 0 4916 4286 2 MP stroke
SO
6 w
gr

6 w
c9

end %%Color Dict

eplot
%%EndObject

epage
end

showpage

%%Trailer
%%EOF
