%!PS-Adobe-3.0 EPSF-3.0
%%Creator: MATLAB, The MathWorks, Inc. Version 7.14.0.739 (R2012a). Operating System: Linux 2.6.32-431.el6.x86_64 #1 SMP Fri Nov 22 03:15:09 UTC 2013 x86_64.
%%Title: ./ps5q2figE.eps
%%CreationDate: 02/18/2014  21:28:37
%%DocumentNeededFonts: Helvetica
%%DocumentProcessColors: Cyan Magenta Yellow Black
%%LanguageLevel: 2
%%Pages: 1
%%BoundingBox:    70   294   546   523
%%EndComments

%%BeginProlog
% MathWorks dictionary
/MathWorks 160 dict begin
% definition operators
/bdef {bind def} bind def
/ldef {load def} bind def
/xdef {exch def} bdef
/xstore {exch store} bdef
% operator abbreviations
/c  /clip ldef
/cc /concat ldef
/cp /closepath ldef
/gr /grestore ldef
/gs /gsave ldef
/mt /moveto ldef
/np /newpath ldef
/cm /currentmatrix ldef
/sm /setmatrix ldef
/rm /rmoveto ldef
/rl /rlineto ldef
/s {show newpath} bdef
/sc {setcmykcolor} bdef
/sr /setrgbcolor ldef
/sg /setgray ldef
/w /setlinewidth ldef
/j /setlinejoin ldef
/cap /setlinecap ldef
/rc {rectclip} bdef
/rf {rectfill} bdef
% page state control
/pgsv () def
/bpage {/pgsv save def} bdef
/epage {pgsv restore} bdef
/bplot /gsave ldef
/eplot {stroke grestore} bdef
% orientation switch
/portraitMode 0 def /landscapeMode 1 def /rotateMode 2 def
% coordinate system mappings
/dpi2point 0 def
% font control
/FontSize 0 def
/FMS {/FontSize xstore findfont [FontSize 0 0 FontSize neg 0 0]
  makefont setfont} bdef
/reencode {exch dup where {pop load} {pop StandardEncoding} ifelse
  exch dup 3 1 roll findfont dup length dict begin
  { 1 index /FID ne {def}{pop pop} ifelse } forall
  /Encoding exch def currentdict end definefont pop} bdef
/isroman {findfont /CharStrings get /Agrave known} bdef
/FMSR {3 1 roll 1 index dup isroman {reencode} {pop pop} ifelse
  exch FMS} bdef
/csm {1 dpi2point div -1 dpi2point div scale neg translate
 dup landscapeMode eq {pop -90 rotate}
  {rotateMode eq {90 rotate} if} ifelse} bdef
% line types: solid, dotted, dashed, dotdash
/SO { [] 0 setdash } bdef
/DO { [.5 dpi2point mul 4 dpi2point mul] 0 setdash } bdef
/DA { [6 dpi2point mul] 0 setdash } bdef
/DD { [.5 dpi2point mul 4 dpi2point mul 6 dpi2point mul 4
  dpi2point mul] 0 setdash } bdef
% macros for lines and objects
/L {lineto stroke} bdef
/MP {3 1 roll moveto 1 sub {rlineto} repeat} bdef
/AP {{rlineto} repeat} bdef
/PDlw -1 def
/W {/PDlw currentlinewidth def setlinewidth} def
/PP {closepath eofill} bdef
/DP {closepath stroke} bdef
/MR {4 -2 roll moveto dup  0 exch rlineto exch 0 rlineto
  neg 0 exch rlineto closepath} bdef
/FR {MR stroke} bdef
/PR {MR fill} bdef
/L1i {{currentfile picstr readhexstring pop} image} bdef
/tMatrix matrix def
/MakeOval {newpath tMatrix currentmatrix pop translate scale
0 0 1 0 360 arc tMatrix setmatrix} bdef
/FO {MakeOval stroke} bdef
/PO {MakeOval fill} bdef
/PD {currentlinewidth 2 div 0 360 arc fill
   PDlw -1 eq not {PDlw w /PDlw -1 def} if} def
/FA {newpath tMatrix currentmatrix pop translate scale
  0 0 1 5 -2 roll arc tMatrix setmatrix stroke} bdef
/PA {newpath tMatrix currentmatrix pop	translate 0 0 moveto scale
  0 0 1 5 -2 roll arc closepath tMatrix setmatrix fill} bdef
/FAn {newpath tMatrix currentmatrix pop translate scale
  0 0 1 5 -2 roll arcn tMatrix setmatrix stroke} bdef
/PAn {newpath tMatrix currentmatrix pop translate 0 0 moveto scale
  0 0 1 5 -2 roll arcn closepath tMatrix setmatrix fill} bdef
/vradius 0 def /hradius 0 def /lry 0 def
/lrx 0 def /uly 0 def /ulx 0 def /rad 0 def
/MRR {/vradius xdef /hradius xdef /lry xdef /lrx xdef /uly xdef
  /ulx xdef newpath tMatrix currentmatrix pop ulx hradius add uly
  vradius add translate hradius vradius scale 0 0 1 180 270 arc 
  tMatrix setmatrix lrx hradius sub uly vradius add translate
  hradius vradius scale 0 0 1 270 360 arc tMatrix setmatrix
  lrx hradius sub lry vradius sub translate hradius vradius scale
  0 0 1 0 90 arc tMatrix setmatrix ulx hradius add lry vradius sub
  translate hradius vradius scale 0 0 1 90 180 arc tMatrix setmatrix
  closepath} bdef
/FRR {MRR stroke } bdef
/PRR {MRR fill } bdef
/MlrRR {/lry xdef /lrx xdef /uly xdef /ulx xdef /rad lry uly sub 2 div def
  newpath tMatrix currentmatrix pop ulx rad add uly rad add translate
  rad rad scale 0 0 1 90 270 arc tMatrix setmatrix lrx rad sub lry rad
  sub translate rad rad scale 0 0 1 270 90 arc tMatrix setmatrix
  closepath} bdef
/FlrRR {MlrRR stroke } bdef
/PlrRR {MlrRR fill } bdef
/MtbRR {/lry xdef /lrx xdef /uly xdef /ulx xdef /rad lrx ulx sub 2 div def
  newpath tMatrix currentmatrix pop ulx rad add uly rad add translate
  rad rad scale 0 0 1 180 360 arc tMatrix setmatrix lrx rad sub lry rad
  sub translate rad rad scale 0 0 1 0 180 arc tMatrix setmatrix
  closepath} bdef
/FtbRR {MtbRR stroke } bdef
/PtbRR {MtbRR fill } bdef
/stri 6 array def /dtri 6 array def
/smat 6 array def /dmat 6 array def
/tmat1 6 array def /tmat2 6 array def /dif 3 array def
/asub {/ind2 exch def /ind1 exch def dup dup
  ind1 get exch ind2 get sub exch } bdef
/tri_to_matrix {
  2 0 asub 3 1 asub 4 0 asub 5 1 asub
  dup 0 get exch 1 get 7 -1 roll astore } bdef
/compute_transform {
  dmat dtri tri_to_matrix tmat1 invertmatrix 
  smat stri tri_to_matrix tmat2 concatmatrix } bdef
/ds {stri astore pop} bdef
/dt {dtri astore pop} bdef
/db {2 copy /cols xdef /rows xdef mul dup 3 mul string
  currentfile 
  3 index 0 eq {/ASCIIHexDecode filter}
  {/ASCII85Decode filter 3 index 2 eq {/RunLengthDecode filter} if }
  ifelse exch readstring pop
  dup 0 3 index getinterval /rbmap xdef
  dup 2 index dup getinterval /gbmap xdef
  1 index dup 2 mul exch getinterval /bbmap xdef pop pop}bdef
/it {gs np dtri aload pop moveto lineto lineto cp c
  cols rows 8 compute_transform 
  rbmap gbmap bbmap true 3 colorimage gr}bdef
/il {newpath moveto lineto stroke}bdef
currentdict end def
%%EndProlog

%%BeginSetup
MathWorks begin

0 cap

end
%%EndSetup

%%Page: 1 1
%%BeginPageSetup
%%PageBoundingBox:    70   294   546   523
MathWorks begin
bpage
%%EndPageSetup

%%BeginObject: obj1
bplot

/dpi2point 12 def
portraitMode 0216 7344 csm

  631  1066  5706  2739 rc
76 dict begin %Colortable dictionary
/c0 { 0.000000 0.000000 0.000000 sr} bdef
/c1 { 1.000000 1.000000 1.000000 sr} bdef
/c2 { 0.900000 0.000000 0.000000 sr} bdef
/c3 { 0.000000 0.820000 0.000000 sr} bdef
/c4 { 0.000000 0.000000 0.800000 sr} bdef
/c5 { 0.910000 0.820000 0.320000 sr} bdef
/c6 { 1.000000 0.260000 0.820000 sr} bdef
/c7 { 0.000000 0.820000 0.820000 sr} bdef
c0
1 j
1 sg
   0    0 6913 5186 rf
6 w
0 2313 2314 0 0 -2313 898 3658 4 MP
PP
-2314 0 0 2313 2314 0 0 -2313 898 3658 5 MP stroke
4 w
DO
SO
6 w
0 sg
 898 3658 mt 3212 3658 L
 898 1345 mt 3212 1345 L
 898 3658 mt  898 1345 L
3212 3658 mt 3212 1345 L
 898 3658 mt 3212 3658 L
 898 3658 mt  898 1345 L
 898 3658 mt  898 3635 L
 898 1345 mt  898 1368 L
%%IncludeResource: font Helvetica
/Helvetica /ISOLatin1Encoding 120 FMSR

 865 3804 mt 
(0) s
1361 3658 mt 1361 3635 L
1361 1345 mt 1361 1368 L
1328 3804 mt 
(2) s
1824 3658 mt 1824 3635 L
1824 1345 mt 1824 1368 L
1791 3804 mt 
(4) s
2286 3658 mt 2286 3635 L
2286 1345 mt 2286 1368 L
2253 3804 mt 
(6) s
2749 3658 mt 2749 3635 L
2749 1345 mt 2749 1368 L
2716 3804 mt 
(8) s
3212 3658 mt 3212 3635 L
3212 1345 mt 3212 1368 L
3146 3804 mt 
(10) s
 898 3658 mt  922 3658 L
3212 3658 mt 3188 3658 L
 798 3702 mt 
(0) s
 898 3328 mt  922 3328 L
3212 3328 mt 3188 3328 L
 631 3372 mt 
(0.05) s
 898 2997 mt  922 2997 L
3212 2997 mt 3188 2997 L
 698 3041 mt 
(0.1) s
 898 2667 mt  922 2667 L
3212 2667 mt 3188 2667 L
 631 2711 mt 
(0.15) s
 898 2336 mt  922 2336 L
3212 2336 mt 3188 2336 L
 698 2380 mt 
(0.2) s
 898 2006 mt  922 2006 L
3212 2006 mt 3188 2006 L
 631 2050 mt 
(0.25) s
 898 1675 mt  922 1675 L
3212 1675 mt 3188 1675 L
 698 1719 mt 
(0.3) s
 898 1345 mt  922 1345 L
3212 1345 mt 3188 1345 L
 631 1389 mt 
(0.35) s
 898 3658 mt 3212 3658 L
 898 1345 mt 3212 1345 L
 898 3658 mt  898 1345 L
3212 3658 mt 3212 1345 L
gs 898 1345 2315 2314 rc
/c8 { 0.000000 0.000000 1.000000 sr} bdef
c8
5 0 5 0 4 0 5 0 5 0 4 0 5 0 5 0 
4 0 5 0 4 0 5 0 5 0 4 0 5 0 5 0 
4 0 5 0 5 0 4 0 5 0 4 0 5 0 5 0 
4 0 5 0 5 0 4 0 5 0 5 0 4 0 5 0 
4 0 5 0 5 0 4 0 5 0 5 0 4 0 5 0 
5 0 4 0 5 0 4 0 5 0 5 0 4 0 5 0 
5 0 4 0 5 0 5 0 4 0 5 0 4 0 5 0 
5 0 4 0 5 0 5 0 4 0 5 0 5 0 4 0 
5 0 4 0 5 0 5 0 4 0 5 0 5 0 4 0 
5 0 5 0 4 0 5 0 4 0 5 0 5 0 4 0 
5 0 5 0 4 0 5 0 4 0 5 0 5 0 4 0 
5 0 5 0 4 0 5 0 5 0 4 0 5 0 4 0 
5 0 5 0 4 0 5 0 5 0 4 0 5 0 5 0 
4 0 5 0 4 0 5 0 5 0 4 0 5 0 5 0 
4 0 5 0 5 0 4 0 5 0 4 0 5 0 5 0 
4 0 5 0 5 0 4 0 5 0 5 0 4 0 5 0 
4 0 5 0 5 0 4 0 5 0 5 0 4 0 5 0 
5 0 4 0 5 0 4 0 5 0 5 0 4 0 5 0 
5 0 4 0 5 0 5 0 4 0 5 0 4 0 5 0 
5 0 4 0 5 0 5 0 4 0 5 0 5 0 4 0 
5 0 4 0 5 0 5 0 4 0 5 0 5 0 4 0 
5 0 4 0 5 0 5 0 4 0 5 0 5 0 4 0 
5 0 5 0 4 0 5 0 4 0 5 0 5 0 4 0 
5 0 5 0 4 0 5 0 5 0 4 0 5 0 4 0 
5 0 5 0 4 0 5 0 5 0 4 0 5 0 5 0 
4 0 5 0 4 0 5 0 5 0 4 0 5 0 5 0 
4 0 5 0 5 0 4 0 5 0 4 0 5 0 5 0 
4 0 5 0 5 0 4 0 5 0 5 0 4 0 5 0 
4 0 5 0 5 0 4 0 5 0 5 0 4 0 5 0 
5 0 4 0 5 0 4 0 5 0 5 0 4 0 5 0 
5 0 4 0 5 0 5 0 4 0 5 0 4 0 5 0 
5 0 4 0 5 0 5 0 4 0 5 0 4 0 5 0 
5 0 4 0 5 0 5 0 4 0 5 0 5 0 4 0 
5 0 4 0 5 0 5 0 4 0 5 0 5 0 4 0 
5 0 5 0 4 0 5 0 4 0 5 0 5 0 4 0 
5 0 5 0 4 0 5 0 5 0 4 0 5 0 4 0 
5 0 5 0 4 0 5 0 5 0 4 0 5 0 5 0 
4 0 5 0 4 0 1826 3658 300 MP stroke
5 0 5 0 4 0 5 0 5 0 4 0 5 0 5 0 
4 0 5 0 4 0 5 0 5 0 4 0 5 0 5 0 
4 0 5 0 5 0 4 0 5 0 4 0 5 0 5 0 
4 0 5 0 5 0 4 0 5 0 5 0 4 0 5 0 
4 0 5 0 5 0 4 1 5 -1 5 0 4 0 5 0 
4 0 5 0 5 0 4 0 5 0 5 1 4 -1 5 1 
5 -1 4 0 5 1 4 -1 5 0 5 0 4 0 5 0 
5 0 4 1 5 0 5 -1 4 4 5 -4 4 0 5 0 
5 1 4 0 5 -1 5 0 4 1 5 0 5 -1 4 2 
5 2 4 -4 5 9 5 -8 4 -1 5 1 5 0 4 2 
5 0 5 -3 4 1 5 1 4 0 5 -2 5 5 4 3 
5 -7 5 0 4 21 5 -21 5 0 4 1 5 0 4 4 
5 0 5 -5 4 0 5 3 5 -1 4 -1 5 -1 5 12 
4 8 5 -19 4 0 5 53 5 -52 4 0 5 1 5 1 
4 -2 5 9 5 3 4 -13 5 1 4 7 5 -4 5 -1 
4 -3 5 30 5 -29 4 46 5 -43 4 -1 5 131 5 -130 
4 0 5 4 5 1 4 -2 5 5 5 2 4 21 5 -33 
4 3 5 16 5 -13 4 2 5 -8 5 20 4 32 5 -52 
5 118 4 -109 5 -2 4 328 5 -328 5 -1 4 0 5 3 
5 2 4 6 5 13 5 2 4 53 5 -79 4 4 5 9 
5 9 4 -7 5 -15 5 -2 4 51 5 47 5 -98 4 294 
5 -297 4 11 5 3 5 828 4 -829 5 4 5 -15 4 7 
5 -1 5 -11 4 46 5 -46 4 79 5 129 5 -204 4 6 
5 5 5 16 4 42 5 -61 5 19 4 -18 5 -4 4 88 
5 87 5 -173 4 507 5 -496 5 -20 4 12 5 14 5 2075 
898 1553 201 MP stroke
gr

c8
0 sg
1934 1250 mt 
(PDF) s
1 sg
0 2313 2313 0 0 -2313 3942 3658 4 MP
PP
-2313 0 0 2313 2313 0 0 -2313 3942 3658 5 MP stroke
4 w
DO
SO
6 w
0 sg
3942 3658 mt 6255 3658 L
3942 1345 mt 6255 1345 L
3942 3658 mt 3942 1345 L
6255 3658 mt 6255 1345 L
3942 3658 mt 6255 3658 L
3942 3658 mt 3942 1345 L
3942 3658 mt 3942 3635 L
3942 1345 mt 3942 1368 L
3909 3804 mt 
(0) s
4520 3658 mt 4520 3635 L
4520 1345 mt 4520 1368 L
4487 3804 mt 
(2) s
5098 3658 mt 5098 3635 L
5098 1345 mt 5098 1368 L
5065 3804 mt 
(4) s
5676 3658 mt 5676 3635 L
5676 1345 mt 5676 1368 L
5643 3804 mt 
(6) s
6255 3658 mt 6255 3635 L
6255 1345 mt 6255 1368 L
6222 3804 mt 
(8) s
3942 3658 mt 3965 3658 L
6255 3658 mt 6231 3658 L
3841 3702 mt 
(0) s
3942 3195 mt 3965 3195 L
6255 3195 mt 6231 3195 L
3741 3239 mt 
(0.2) s
3942 2733 mt 3965 2733 L
6255 2733 mt 6231 2733 L
3741 2777 mt 
(0.4) s
3942 2270 mt 3965 2270 L
6255 2270 mt 6231 2270 L
3741 2314 mt 
(0.6) s
3942 1808 mt 3965 1808 L
6255 1808 mt 6231 1808 L
3741 1852 mt 
(0.8) s
3942 1345 mt 3965 1345 L
6255 1345 mt 6231 1345 L
3841 1389 mt 
(1) s
3942 3658 mt 6255 3658 L
3942 1345 mt 6255 1345 L
3942 3658 mt 3942 1345 L
6255 3658 mt 6255 1345 L
gs 3942 1345 2314 2314 rc
c8
3 0 5 0 6 0 6 0 6 0 6 0 5 0 6 0 
6 0 6 0 6 0 5 0 6 0 6 0 6 0 6 0 
5 0 6 0 6 0 6 0 6 0 5 0 6 0 6 0 
6 0 6 0 5 0 6 0 6 0 6 0 5 0 6 0 
6 0 6 0 6 0 5 0 6 0 6 0 6 0 6 0 
5 0 6 0 6 0 6 0 6 0 5 0 6 0 6 0 
6 0 6 0 5 0 6 0 6 0 6 0 6 0 5 0 
6 0 6 0 6 0 6 0 5 0 6 0 6 0 6 0 
5 0 6 0 6 0 6 0 6 0 5 0 6 0 6 0 
6 0 6 0 5 0 6 0 6 0 6 0 6 0 5 0 
6 0 6 0 6 0 6 0 5 0 6 0 6 0 6 0 
6 0 5 0 6 0 6 0 6 0 6 0 5 0 6 0 
6 0 6 0 5 0 6 0 6 0 6 0 6 0 5 0 
6 0 6 0 6 0 6 0 5 0 6 0 6 0 6 0 
6 0 5 0 6 0 6 0 6 0 6 0 5 0 6 0 
6 0 6 0 6 0 5 0 6 0 6 0 6 0 6 0 
5 0 6 0 6 0 6 0 5 0 6 0 6 0 6 0 
6 0 5 0 6 0 6 0 6 0 6 0 5 0 6 0 
6 0 6 0 6 0 5 0 6 0 6 0 6 0 6 0 
5 0 6 0 6 0 6 0 6 0 5 0 6 0 6 0 
6 0 6 0 5 0 6 0 6 0 6 0 5 0 6 0 
6 0 6 0 6 0 5 0 6 0 6 0 6 0 6 0 
5 0 6 0 6 0 6 0 6 0 5 0 6 0 6 0 
6 0 6 0 5 0 6 0 6 0 6 0 6 0 5 0 
6 0 6 0 6 0 6 0 5 0 6 0 6 0 6 0 
5 0 6 0 6 0 6 0 6 0 5 0 6 0 6 0 
6 0 6 0 5 0 6 0 6 0 6 0 6 0 5 0 
6 0 6 0 6 0 6 0 5 0 6 0 6 0 6 0 
6 0 5 0 6 0 6 0 6 0 6 0 5 0 6 0 
6 0 6 0 5 -1 6 0 6 0 6 0 6 0 5 0 
6 0 6 0 6 0 6 0 5 0 6 0 6 0 6 0 
6 -1 5 0 6 0 6 0 6 0 6 0 5 0 6 0 
6 -1 6 0 6 0 5 0 6 0 6 -2 6 0 6 0 
5 0 6 0 6 -1 6 0 5 0 6 0 6 0 6 0 
6 -1 5 -1 6 -1 6 -3 6 0 6 0 5 0 6 -1 
6 0 6 -1 6 0 5 -1 6 0 6 -1 6 0 6 -2 
5 -3 6 0 6 0 6 -8 6 -1 5 0 6 -1 6 0 
6 -2 6 -3 5 0 4527 1381 300 MP stroke
6 0 6 -2 6 -1 5 -1 6 0 6 -4 6 -8 6 0 
5 -1 6 -19 6 -2 6 0 6 -2 5 -2 6 -1 6 -4 
6 -5 6 -1 5 -1 6 -4 6 -2 6 -2 6 0 5 -12 
6 -1 6 -17 6 -2 6 -2 5 -47 6 -2 6 -2 6 -4 
6 -4 5 -3 6 -5 6 -5 6 -13 5 -2 6 -2 6 -8 
6 -4 6 -4 5 -1 6 -9 6 -20 6 -1 6 -43 5 -4 
6 -4 6 -119 6 -4 6 -4 5 -3 6 -5 6 -5 6 -7 
6 -12 5 -12 6 -32 6 -3 6 -5 6 -8 5 -11 6 -9 
6 -4 6 -3 6 -20 5 -37 6 -3 6 -106 6 -2 5 -5 
6 -7 6 -296 6 -7 6 -8 5 -2 6 -5 6 -4 6 -1 
6 -17 5 -1 6 -28 6 -74 6 -2 6 -5 5 -5 6 -12 
6 -26 6 -5 6 -12 5 -5 6 -4 6 -34 6 -66 6 -4 
5 -182 6 -9 6 -1 6 -6 5 -10 3942 2921 102 MP stroke
gr

c8
0 sg
4975 1250 mt 
(CDF) s

end %%Color Dict

eplot
%%EndObject

epage
end

showpage

%%Trailer
%%EOF
